# --> Including file '/build/jenkins-tests/workspace/nightly-builds/tests@2/build/BRUNEL/BRUNEL_HEAD/Rec/Brunel/tests/options/testBrunel-defaults.py'
# <-- End of file '/build/jenkins-tests/workspace/nightly-builds/tests@2/build/BRUNEL/BRUNEL_HEAD/Rec/Brunel/tests/options/testBrunel-defaults.py'
# --> Including file '/build/jenkins-tests/workspace/nightly-builds/tests@2/build/BRUNEL/BRUNEL_HEAD/Rec/Brunel/tests/options/2012-crashes.py'
# <-- End of file '/build/jenkins-tests/workspace/nightly-builds/tests@2/build/BRUNEL/BRUNEL_HEAD/Rec/Brunel/tests/options/2012-crashes.py'
# applying configuration of Brunel
# /***** User Brunel/Brunel **************************************************************************
# |-FilterTrackStates   = True
# |-PhysFilterMask      = None
# |-DatasetName         = 'Brunel'
# |-Histograms          = 'OfflineFull'
# |-DBSnapshotDirectory = '/group/online/hlt/conditions'
# |-ProductionMode      = True  (default: False)
# |-WriteLumi           = False
# |-SplitRawEventInput  = None
# |-PackType            = 'TES'
# |-DDDBtag             = ''
# |-WithMC              = False
# |-MainSequence        = ['ProcessPhase/Reco', 'ProcessPhase/Moni']  (default: None)
# |-OutputType          = 'DST'
# |-DisableTiming       = True  (default: False)
# |-DigiType            = 'Default'
# |-UseDBSnapshot       = False
# |-PartitionName       = 'LHCb'
# |-VetoHltErrorEvents  = True
# |-MCCheckSequence     = None
# |-InputType           = 'MDF'
# |-OnlineMode          = False
# |-WriteFSR            = True
# |-SkipTracking        = False
# |-SkipEvents          = 0
# |-PrintFreq           = 1000  (default: 1)
# |-Detectors           = ['Velo', 'PuVeto', 'Rich1', 'Rich2', 'TT', 'IT', 'OT', 'Spd', 'Prs', 'Ecal', 'Hcal', 'Muon', 'Magnet', 'Tr']
# |                     (default: None)
# |-EvtMax              = -1
# |-Simulation          = False
# |-MergeGenFSR         = False  (default: True)
# |-Context             = 'Offline'
# |-RichSequences       = ['RICHFUTURE']  (default: ['RICHFUTURE'])
# |-RecoSequence        = None
# |-CondDBtag           = ''
# |-MCLinksSequence     = ['L0', 'Unpack', 'Tr', 'Calo']  (default: ['L0', 'Unpack', 'Tr', 'Calo'])
# |-Hlt2FilterCode      = ''
# |-Hlt1FilterCode      = ''
# |-OutputLevel         = 5  (default: 3)
# |-InitSequence        = ['Brunel']  (default: None)
# |-DataType            = '2012'  (default: '2016')
# |-NoWarnings          = False
# |-SplitRawEventOutput = 4.0  (default: 4.3)
# |-RecL0Only           = False
# |-RawBanksToKill      = None
# |-SpecialData         = []  (default: [])
# |-Monitors            = ['SC', 'FPE']  (default: [])
# \----- (End of User Brunel/Brunel) -----------------------------------------------------------------
# /***** User RecSysConf/RecSysConf ******************************************************************
# |-SkipTracking  = False
# |-DataType      = '2012'  (default: '')
# |-OutputLevel   = 5  (default: 3)
# |-Histograms    = 'OfflineFull'
# |-Detectors     = ['Velo', 'PuVeto', 'Rich1', 'Rich2', 'TT', 'IT', 'OT', 'Spd', 'Prs', 'Ecal', 'Hcal', 'Muon', 'Magnet', 'Tr']
# |               (default: ['Velo', 'TT', 'IT', 'OT', 'Rich', 'Tr', 'Calo', 'Muon', 'L0'])
# |-OutputType    = 'DST'
# |-Simulation    = False
# |-Context       = 'Offline'
# |-RichSequences = ['RICHFUTURE']  (default: ['RICHFUTURE'])
# |-RecoSequence  = None
# |-SpecialData   = []  (default: [])
# |-OnlineMode    = False
# \----- (End of User RecSysConf/RecSysConf) ---------------------------------------------------------
# /***** User TrackSys/TrackSys **********************************************************************
# |-FilterBeforeFit          = True
# |-TrackingSequence         = []  (default: [])
# |-ExpertTracking           = []  (default: [])
# |-ExpertHistos             = False
# |-TrackExtraInfoAlgorithms = []  (default: [])
# |-DataType                 = '2012'  (default: '2011')
# |-WithMC                   = False
# |-TrackTypes               = []  (default: [])
# |-OutputType               = ''
# |-Simulation               = False
# |-OldCloneKiller           = False
# |-ForceNewSeq              = False
# |-GlobalCuts               = {}  (default: {})
# |-ExcludedLayers           = []  (default: [])
# |-ForceOldSeq              = False
# |-SpecialData              = []  (default: [])
# |-HltMode                  = False
# |-TrackPatRecAlgorithms    = []  (default: [])
# \----- (End of User TrackSys/TrackSys) -------------------------------------------------------------
# /***** User RecMoniConf/RecMoniConf ****************************************************************
# |-SkipTracking  = False
# |-DataType      = '2012'  (default: '')
# |-Detectors     = ['Velo', 'PuVeto', 'Rich1', 'Rich2', 'TT', 'IT', 'OT', 'Spd', 'Prs', 'Ecal', 'Hcal', 'Muon', 'Magnet', 'Tr']
# |               (default: ['Velo', 'TT', 'IT', 'OT', 'Rich', 'Tr', 'Calo', 'Muon', 'L0'])
# |-Histograms    = 'OfflineFull'
# |-OutputLevel   = 5  (default: 3)
# |-Simulation    = False
# |-Context       = 'Offline'
# |-MoniSequence  = None
# |-RichSequences = ['RICHFUTURE']  (default: ['RICHFUTURE'])
# |-OnlineMode    = False
# |-CheckEnabled  = False
# \----- (End of User RecMoniConf/RecMoniConf) -------------------------------------------------------
# DstWriter.ItemList=['/Event/Rec/Header#1', '/Event/Rec/Status#1', '/Event/Rec/Summary#1', '/Event/pRec/Track/Best#1', '/Event/pRec/Vertex/Primary#1', '/Event/pRec/Rich/PIDs#1', '/Event/pRec/Muon/MuonPID#1', '/Event/pRec/Calo/Electrons#1', '/Event/pRec/Calo/Photons#1', '/Event/pRec/Calo/MergedPi0s#1', '/Event/pRec/Calo/SplitPhotons#1', '/Event/pRec/ProtoP/Charged#1', '/Event/pRec/ProtoP/Neutrals#1', '/Event/pRec/Vertex/V0#1', '/Event/pRec/Track/Muon#1', '/Event/Calo/RawEvent#1', '/Event/Unstripped/RawEvent#1', '/Event/Trigger/RawEvent#1', '/Event/Velo/RawEvent#1', '/Event/Muon/RawEvent#1', '/Event/Rich/RawEvent#1', '/Event/Tracker/RawEvent#1']
# DstWriter.OptItemList=[]
# Apply CaloProcessor configuration for ['Digits', 'Clusters', 'Photons', 'MergedPi0s', 'SplitPhotons', 'Electrons'] and ['InAcceptance', 'Match', 'Energy', 'Chi2', 'DLL', 'NeutralPID']
# Configurabe : Counter level is 1
# Configured Ecal Clusters Reco : ClusterReco
# Configured Single Photons Reco : PhotonReco
# Configured Merged Pi0 Reco : MergedPi0Reco
# Configured Electron Hypos Reco : ElectronReco
# Configured Calo PIDs           : CaloPIDsCaloPIDsForCaloProcessor
# Configure caloSequencer  : CaloProcessorCaloSeq
# ConfiguredMuonIDs: Loaded configuration info M_2011_def
# WARNING: Property 'DataType' is set in both 'DigiConf' and 'SimConf', using 'DigiConf.DataType'
# No Writer defined for DIGI
# WARNING: Using default tag dddb-20171030-2 for partition DDDB
# WARNING: Using default tag cond-20150409-1 for partition LHCBCOND
# WARNING: Using default tag <latest:2012> for partition DQFLAGS
ApplicationMgr    SUCCESS
====================================================================================================================================
                                                   Welcome to Brunel version HEAD
                                          running on lbbuild42.cern.ch on Fri Nov 17 03:31:05 2017
====================================================================================================================================
ApplicationMgr       INFO Application Manager Configured successfully
StatusCodeSvc        INFO initialize
ToolSvc.GitDDDB      INFO opening Git repository '/cvmfs/lhcb.cern.ch/lib/lhcb/git-conddb/DDDB.git'
ToolSvc.GitDDDB      INFO using commit 'dddb-20171030-2' corresponding to f3d479be34024895a86a40915bed8ca697243852
ToolSvc.GitLHCB...   INFO opening Git repository '/cvmfs/lhcb.cern.ch/lib/lhcb/git-conddb/LHCBCOND.git'
ToolSvc.GitLHCB...   INFO using commit 'cond-20150409-1' corresponding to 862558522625bc8e913636791ef778223447c38e
ToolSvc.GitONLINE    INFO opening Git repository '/cvmfs/lhcb.cern.ch/lib/lhcb/git-conddb/ONLINE.git'
ToolSvc.GitONLINE    INFO using commit 'HEAD' corresponding to ed5cbfc685207b9ba1a40f68da04888a6114182b
ToolSvc.GitDQFLAGS   INFO opening Git repository '/cvmfs/lhcb.cern.ch/lib/lhcb/git-conddb/DQFLAGS.git'
ToolSvc.GitDQFLAGS   INFO using commit 'dq-20140822' corresponding to c8cd1b53fd9964a2f7f6de2c9a85c1982a286f94
DetectorDataSvc   SUCCESS Detector description database: git:/lhcb.xml
BrunelInit        SUCCESS ==================================================================
BrunelInit        SUCCESS Requested to process all events on input file(s)
BrunelInit        SUCCESS ==================================================================
MagneticFieldSvc     INFO Opened magnetic field file : /afs/cern.ch/lhcb/software/DEV/nightlies/DBASE/FieldMap/v5r7/cdf/field101.c1.down.cdf
MagneticFieldSvc     INFO Opened magnetic field file : /afs/cern.ch/lhcb/software/DEV/nightlies/DBASE/FieldMap/v5r7/cdf/field101.c2.down.cdf
MagneticFieldSvc     INFO Opened magnetic field file : /afs/cern.ch/lhcb/software/DEV/nightlies/DBASE/FieldMap/v5r7/cdf/field101.c3.down.cdf
MagneticFieldSvc     INFO Opened magnetic field file : /afs/cern.ch/lhcb/software/DEV/nightlies/DBASE/FieldMap/v5r7/cdf/field101.c4.down.cdf
MagneticFieldSvc     INFO Map scaled by factor 1 with polarity internally used: -1 signed relative current: -1
DstWriter            INFO Data source: EventDataSvc output: DATAFILE='PFN:Brunel.dst' SVC='RootCnvSvc' OPT='REC'
FSROutputStream...   INFO Data source: FileRecordDataSvc output: DATAFILE='PFN:Brunel.dst' SVC='FileRecordCnvSvc' OPT='REC'
IODataManager       ERROR Referring to existing dataset /afs/cern.ch/lhcb/software/DEV/nightlies/PARAM/QMTestFiles/v1r999/data/111473_0000000110_evt11603_bug93550.raw by its physical name.
IODataManager       ERROR You may not be able to navigate back to the input file -- processing continues
EventSelector        INFO Stream:EventSelector.DataStreamTool_1 Def:DATAFILE='/afs/cern.ch/lhcb/software/DEV/nightlies/PARAM/QMTestFiles/v1r999/data/111473_0000000110_evt11603_bug93550.raw' SVC='LHCb::MDFSelector' OPT='READ'
ApplicationMgr       INFO Application Manager Initialized successfully
ApplicationMgr       INFO Application Manager Started successfully
EventSelector.D...   INFO Compression:2 Checksum:1
MagneticFieldSvc     INFO Map scaled by factor 1 with polarity internally used: -1 signed relative current: -1
BrunelInit           INFO Evt 58632763,  Run 111473,  Nr. in job = 1
EventSelector.D...   INFO Cannot read more data  (Header). End-of-File reached.
IODataManager       ERROR Referring to existing dataset /afs/cern.ch/lhcb/software/DEV/nightlies/PARAM/QMTestFiles/v1r999/data/111702_0000000001_evt110102_bug93550.raw by its physical name.
IODataManager       ERROR You may not be able to navigate back to the input file -- processing continues
EventSelector        INFO Stream:EventSelector.DataStreamTool_2 Def:DATAFILE='/afs/cern.ch/lhcb/software/DEV/nightlies/PARAM/QMTestFiles/v1r999/data/111702_0000000001_evt110102_bug93550.raw' SVC='LHCb::MDFSelector' OPT='READ'
EventSelector.D...   INFO Compression:2 Checksum:1
EventSelector.D...   INFO Cannot read more data  (Header). End-of-File reached.
IODataManager       ERROR Referring to existing dataset /afs/cern.ch/lhcb/software/DEV/nightlies/PARAM/QMTestFiles/v1r999/data/111800_0000000026_evt16533_bug93550.raw by its physical name.
IODataManager       ERROR You may not be able to navigate back to the input file -- processing continues
EventSelector        INFO Stream:EventSelector.DataStreamTool_3 Def:DATAFILE='/afs/cern.ch/lhcb/software/DEV/nightlies/PARAM/QMTestFiles/v1r999/data/111800_0000000026_evt16533_bug93550.raw' SVC='LHCb::MDFSelector' OPT='READ'
EventSelector.D...   INFO Compression:2 Checksum:1
EventSelector.D...   INFO Cannot read more data  (Header). End-of-File reached.
IODataManager       ERROR Referring to existing dataset /afs/cern.ch/lhcb/software/DEV/nightlies/PARAM/QMTestFiles/v1r999/data/114752_0000000076_evt377_bug94407.raw by its physical name.
IODataManager       ERROR You may not be able to navigate back to the input file -- processing continues
EventSelector        INFO Stream:EventSelector.DataStreamTool_4 Def:DATAFILE='/afs/cern.ch/lhcb/software/DEV/nightlies/PARAM/QMTestFiles/v1r999/data/114752_0000000076_evt377_bug94407.raw' SVC='LHCb::MDFSelector' OPT='READ'
EventSelector.D...   INFO Compression:2 Checksum:1
MagneticFieldSvc     INFO Map scaled by factor 0.999998 with polarity internally used: -1 signed relative current: -0.999998
EventSelector.D...   INFO Cannot read more data  (Header). End-of-File reached.
EventLoopMgr         INFO No more events in event selection
ApplicationMgr       INFO Application Manager Stopped successfully
BrunelInit        SUCCESS ==================================================================
BrunelInit        SUCCESS 4 events processed
BrunelInit        SUCCESS ==================================================================
BrunelEventCount  SUCCESS Booked 1 Histogram(s) : 1D=1
FilterNoBeam      SUCCESS Number of counters : 1
 |    Counter                                      |     #     |    sum     | mean/eff^* | rms/err^*  |     min     |     max     |
 |*"#passed"                                       |         4 |          0 |(  0.00000 +- 25.0000  )%|   -------   |   -------   |
LumiCountNoBeam      INFO number of files seen: 0
LumiCountNoBeam      INFO INTEGRAL: {  runs :  files :  info (key/incr/integral) :  }
FilterBeamCrossingSUCCESS Number of counters : 1
 |    Counter                                      |     #     |    sum     | mean/eff^* | rms/err^*  |     min     |     max     |
 |*"#passed"                                       |         4 |          0 |(  0.00000 +- 25.0000  )%|   -------   |   -------   |
LumiCountBeamCr...   INFO number of files seen: 0
LumiCountBeamCr...   INFO INTEGRAL: {  runs :  files :  info (key/incr/integral) :  }
FilterBeam1       SUCCESS Number of counters : 1
 |    Counter                                      |     #     |    sum     | mean/eff^* | rms/err^*  |     min     |     max     |
 |*"#passed"                                       |         4 |          0 |(  0.00000 +- 25.0000  )%|   -------   |   -------   |
LumiCountBeam1       INFO number of files seen: 0
LumiCountBeam1       INFO INTEGRAL: {  runs :  files :  info (key/incr/integral) :  }
FilterBeam2       SUCCESS Number of counters : 1
 |    Counter                                      |     #     |    sum     | mean/eff^* | rms/err^*  |     min     |     max     |
 |*"#passed"                                       |         4 |          0 |(  0.00000 +- 25.0000  )%|   -------   |   -------   |
LumiCountBeam2       INFO number of files seen: 0
LumiCountBeam2       INFO INTEGRAL: {  runs :  files :  info (key/incr/integral) :  }
TimeSpanFilter    SUCCESS Number of counters : 1
 |    Counter                                      |     #     |    sum     | mean/eff^* | rms/err^*  |     min     |     max     |
 |*"#passed"                                       |         4 |          0 |(  0.00000 +- 25.0000  )%|   -------   |   -------   |
TimeSpanAccounting   INFO number of files seen: 0
TimeSpanAccounting   INFO FSR: {  earliest : 0 - latest : 0 }
EventAccount         INFO Overriding status: VERIFIED with: VERIFIED
PhysFilter        SUCCESS Number of counters : 1
 |    Counter                                      |     #     |    sum     | mean/eff^* | rms/err^*  |     min     |     max     |
 |*"#accept"                                       |         4 |          4 |(  100.000 +- 25.0000  )%|   -------   |   -------   |
Hlt1ErrorFilter   SUCCESS Number of counters : 1
 |    Counter                                      |     #     |    sum     | mean/eff^* | rms/err^*  |     min     |     max     |
 |*"#passed"                                       |         4 |          4 |(  100.000 +- 25.0000  )%|   -------   |   -------   |
Hlt2ErrorFilter   SUCCESS Number of counters : 1
 |    Counter                                      |     #     |    sum     | mean/eff^* | rms/err^*  |     min     |     max     |
 |*"#passed"                                       |         4 |          4 |(  100.000 +- 25.0000  )%|   -------   |   -------   |
L0DUFromRaw       SUCCESS Number of counters : 1
 |    Counter                                      |     #     |    sum     | mean/eff^* | rms/err^*  |     min     |     max     |
 | "L0DU RawBank Size (Bytes)"                     |         4 |        496 |     124.00 |     0.0000 |      124.00 |      124.00 |
createTTClusters  SUCCESS Number of counters : 3
 |    Counter                                      |     #     |    sum     | mean/eff^* | rms/err^*  |     min     |     max     |
 | "# banks found"                                 |       192 |        192 |     1.0000 |     0.0000 |      1.0000 |      1.0000 |
 | "# valid banks"                                 |       192 |        192 |     1.0000 |     0.0000 |      1.0000 |      1.0000 |
 | "skipped Banks"                                 |         0 |          0 |     0.0000 |     0.0000 | 1.7977e+308 |-1.7977e+308 |
createTTLiteClu...SUCCESS Number of counters : 3
 |    Counter                                      |     #     |    sum     | mean/eff^* | rms/err^*  |     min     |     max     |
 | "# valid banks"                                 |       192 |        192 |     1.0000 |     0.0000 |      1.0000 |      1.0000 |
 | "# valid source ID"                             |       192 |        192 |     1.0000 |     0.0000 |      1.0000 |      1.0000 |
 | "skipped Banks"                                 |         0 |          0 |     0.0000 |     0.0000 | 1.7977e+308 |-1.7977e+308 |
createITLiteClu...SUCCESS Number of counters : 3
 |    Counter                                      |     #     |    sum     | mean/eff^* | rms/err^*  |     min     |     max     |
 | "# valid banks"                                 |       168 |        168 |     1.0000 |     0.0000 |      1.0000 |      1.0000 |
 | "# valid source ID"                             |       168 |        168 |     1.0000 |     0.0000 |      1.0000 |      1.0000 |
 | "skipped Banks"                                 |         0 |          0 |     0.0000 |     0.0000 | 1.7977e+308 |-1.7977e+308 |
createITClusters  SUCCESS Number of counters : 3
 |    Counter                                      |     #     |    sum     | mean/eff^* | rms/err^*  |     min     |     max     |
 | "# banks found"                                 |       168 |        168 |     1.0000 |     0.0000 |      1.0000 |      1.0000 |
 | "# valid banks"                                 |       168 |        168 |     1.0000 |     0.0000 |      1.0000 |      1.0000 |
 | "skipped Banks"                                 |         0 |          0 |     0.0000 |     0.0000 | 1.7977e+308 |-1.7977e+308 |
FastVeloTracking  SUCCESS Exceptions/Errors/Warnings/Infos Statistics : 0/0/1/0
FastVeloTracking  SUCCESS  #WARNINGS   = 3        Message = 'Fired high track to cluster ratio: assume beam splash and do aggressive clone killing'
PatForward        SUCCESS Number of counters : 2
 |    Counter                                      |     #     |    sum     | mean/eff^* | rms/err^*  |     min     |     max     |
 | "#Seeds"                                        |         4 |        476 |     119.00 |     28.328 |      83.000 |      160.00 |
 | "#Tracks"                                       |         4 |         94 |     23.500 |     16.621 |      0.0000 |      47.000 |
PatLongLivedTra...SUCCESS Number of counters : 2
 |    Counter                                      |     #     |    sum     | mean/eff^* | rms/err^*  |     min     |     max     |
 | "# Downstream tracks made"                      |       407 |        407 |     1.0000 |     0.0000 |      1.0000 |      1.0000 |
 | "#TT hits added"                                |      1536 |       1536 |     1.0000 |     0.0000 |      1.0000 |      1.0000 |
TrackBestTrackC...SUCCESS Number of counters : 26
 |    Counter                                      |     #     |    sum     | mean/eff^* | rms/err^*  |     min     |     max     |
 | "BadInput"                                      |      1502 |          0 |     0.0000 |     0.0000 |      0.0000 |      0.0000 |
 | "Downstream.badChisq"                           |       394 |        290 |    0.73604 |    0.44078 |      0.0000 |      1.0000 |
 | "Downstream.chisqprobSum"                       |       394 |   16.51184 |   0.041908 |    0.11290 |      0.0000 |     0.97642 |
 | "Downstream.flipCharge"                         |       394 |          0 |     0.0000 |     0.0000 |      0.0000 |      0.0000 |
 | "Downstream.numOutliers"                        |       394 |        526 |     1.3350 |    0.81199 |      0.0000 |      2.0000 |
 | "FitFailed"                                     |      1502 |          0 |     0.0000 |     0.0000 |      0.0000 |      0.0000 |
 | "Long.badChisq"                                 |       148 |        120 |    0.81081 |    0.39166 |      0.0000 |      1.0000 |
 | "Long.chisqprobSum"                             |       148 |    6.25583 |   0.042269 |    0.15900 |      0.0000 |     0.86679 |
 | "Long.flipCharge"                               |       148 |          0 |     0.0000 |     0.0000 |      0.0000 |      0.0000 |
 | "Long.numOutliers"                              |       148 |        232 |     1.5676 |    0.70865 |      0.0000 |      2.0000 |
 | "Ttrack.badChisq"                               |       569 |         52 |   0.091388 |    0.28816 |      0.0000 |      1.0000 |
 | "Ttrack.chisqprobSum"                           |       569 |   146.3341 |    0.25718 |    0.27817 |  9.3694e-06 |     0.99406 |
 | "Ttrack.flipCharge"                             |       569 |         98 |    0.17223 |    0.37758 |      0.0000 |      1.0000 |
 | "Ttrack.numOutliers"                            |       569 |        239 |    0.42004 |    0.61984 |      0.0000 |      2.0000 |
 | "Upstream.badChisq"                             |        58 |         10 |    0.17241 |    0.37774 |      0.0000 |      1.0000 |
 | "Upstream.chisqprobSum"                         |        58 |    13.1881 |    0.22738 |    0.29139 |  2.9528e-05 |     0.99206 |
 | "Upstream.flipCharge"                           |        58 |          0 |     0.0000 |     0.0000 |      0.0000 |      0.0000 |
 | "Upstream.numOutliers"                          |        58 |         73 |     1.2586 |    0.80001 |      0.0000 |      2.0000 |
 | "Velo.badChisq"                                 |       143 |         56 |    0.39161 |    0.48811 |      0.0000 |      1.0000 |
 | "Velo.chisqprobSum"                             |       143 |   23.40833 |    0.16369 |    0.24099 |      0.0000 |     0.88905 |
 | "Velo.flipCharge"                               |       143 |          0 |     0.0000 |     0.0000 |      0.0000 |      0.0000 |
 | "Velo.numOutliers"                              |       143 |        164 |     1.1469 |    0.86871 |      0.0000 |      2.0000 |
 | "VeloBackward.badChisq"                         |       190 |        122 |    0.64211 |    0.47938 |      0.0000 |      1.0000 |
 | "VeloBackward.chisqprobSum"                     |       190 |   17.21947 |   0.090629 |    0.20559 |      0.0000 |     0.99054 |
 | "VeloBackward.flipCharge"                       |       190 |          0 |     0.0000 |     0.0000 |      0.0000 |      0.0000 |
 | "VeloBackward.numOutliers"                      |       190 |        299 |     1.5737 |    0.72717 |      0.0000 |      2.0000 |
TrackV0Finder     SUCCESS Number of counters : 1
 |    Counter                                      |     #     |    sum     | mean/eff^* | rms/err^*  |     min     |     max     |
 | "numselected"                                   |         4 |         19 |     4.7500 |     8.2272 |      0.0000 |      19.000 |
EcalClust         SUCCESS Number of counters : 1
 |    Counter                                      |     #     |    sum     | mean/eff^* | rms/err^*  |     min     |     max     |
 | "#clusters => 'Rec/Calo/EcalClusters'"          |         4 |        256 |     64.000 |     38.059 |      0.0000 |      96.000 |
EcalCovar         SUCCESS Number of counters : 1
 |    Counter                                      |     #     |    sum     | mean/eff^* | rms/err^*  |     min     |     max     |
 | "#Clusters from 'Rec/Calo/EcalClusters'"        |         4 |        256 |     64.000 |     38.059 |      0.0000 |      96.000 |
InECAL            SUCCESS Number of counters : 1
 |    Counter                                      |     #     |    sum     | mean/eff^* | rms/err^*  |     min     |     max     |
 | "[ 'Rec/Track/Best' ]=>Rec/Calo/InAccEcal"      |         4 |        814 |     203.50 |     135.66 |      0.0000 |      382.00 |
ClusterMatch      SUCCESS Number of counters : 2
 |    Counter                                      |     #     |    sum     | mean/eff^* | rms/err^*  |     min     |     max     |
 | "#links"                                        |         4 |       9902 |     2475.5 |     1448.4 |      0.0000 |      3573.0 |
 | "[ 'Rec/Track/Best' ]->[ 'Rec/Calo/EcalClusters'|         4 |       9902 |     2475.5 |     1448.4 |      0.0000 |      3573.0 |
SinglePhotonRec   SUCCESS Number of counters : 1
 |    Counter                                      |     #     |    sum     | mean/eff^* | rms/err^*  |     min     |     max     |
 | "Rec/Calo/EcalClusters=>Rec/Calo/Photons"       |         4 |        143 |     35.750 |     21.405 |      0.0000 |      56.000 |
MergedPi0Rec      SUCCESS Number of counters : 3
 |    Counter                                      |     #     |    sum     | mean/eff^* | rms/err^*  |     min     |     max     |
 | "Rec/Calo/EcalClusters=>Rec/Calo/EcalSplitCluste|         4 |         10 |     2.5000 |     2.1794 |      0.0000 |      6.0000 |
 | "Rec/Calo/EcalClusters=>Rec/Calo/MergedPi0s"    |         4 |          5 |     1.2500 |     1.0897 |      0.0000 |      3.0000 |
 | "Rec/Calo/EcalClusters=>Rec/Calo/SplitPhotons"  |         4 |         10 |     2.5000 |     2.1794 |      0.0000 |      6.0000 |
SingleElectronRec SUCCESS Number of counters : 1
 |    Counter                                      |     #     |    sum     | mean/eff^* | rms/err^*  |     min     |     max     |
 | "Rec/Calo/EcalClusters=>Rec/Calo/Electrons"     |         4 |        124 |     31.000 |     19.429 |      0.0000 |      48.000 |
InHCAL            SUCCESS Number of counters : 1
 |    Counter                                      |     #     |    sum     | mean/eff^* | rms/err^*  |     min     |     max     |
 | "[ 'Rec/Track/Best' ]=>Rec/Calo/InAccHcal"      |         4 |        814 |     203.50 |     135.66 |      0.0000 |      382.00 |
InBREM            SUCCESS Number of counters : 1
 |    Counter                                      |     #     |    sum     | mean/eff^* | rms/err^*  |     min     |     max     |
 | "[ 'Rec/Track/Best' ]=>Rec/Calo/InAccBrem"      |         4 |        257 |     64.250 |     22.376 |      39.000 |      100.00 |
InSPD             SUCCESS Number of counters : 1
 |    Counter                                      |     #     |    sum     | mean/eff^* | rms/err^*  |     min     |     max     |
 | "[ 'Rec/Track/Best' ]=>Rec/Calo/InAccSpd"       |         4 |        814 |     203.50 |     135.66 |      0.0000 |      382.00 |
InPRS             SUCCESS Number of counters : 1
 |    Counter                                      |     #     |    sum     | mean/eff^* | rms/err^*  |     min     |     max     |
 | "[ 'Rec/Track/Best' ]=>Rec/Calo/InAccPrs"       |         4 |        814 |     203.50 |     135.66 |      0.0000 |      382.00 |
ElectronMatch     SUCCESS Number of counters : 2
 |    Counter                                      |     #     |    sum     | mean/eff^* | rms/err^*  |     min     |     max     |
 | "#links"                                        |         4 |       3622 |     905.50 |     527.69 |      0.0000 |      1316.0 |
 | "[ 'Rec/Track/Best' ]->[ 'Rec/Calo/Electrons' ]=|         4 |       3622 |     905.50 |     527.69 |      0.0000 |      1316.0 |
BremMatch         SUCCESS Number of counters : 2
 |    Counter                                      |     #     |    sum     | mean/eff^* | rms/err^*  |     min     |     max     |
 | "#links"                                        |         4 |       2474 |     618.50 |     393.34 |      0.0000 |      1094.0 |
 | "[ 'Rec/Track/Best' ]->[ 'Rec/Calo/Photons' ]=>R|         4 |       2474 |     618.50 |     393.34 |      0.0000 |      1094.0 |
EcalChi22ID       SUCCESS Number of counters : 1
 |    Counter                                      |     #     |    sum     | mean/eff^* | rms/err^*  |     min     |     max     |
 | "[ 'Rec/Track/Best' ]->Rec/Calo/ElectronMatch=>R|         4 |        814 |     203.50 |     135.66 |      0.0000 |      382.00 |
BremChi22ID       SUCCESS Number of counters : 1
 |    Counter                                      |     #     |    sum     | mean/eff^* | rms/err^*  |     min     |     max     |
 | "[ 'Rec/Track/Best' ]->Rec/Calo/BremMatch=>Rec/C|         4 |        257 |     64.250 |     22.376 |      39.000 |      100.00 |
EcalPIDe          SUCCESS Number of counters : 1
 |    Counter                                      |     #     |    sum     | mean/eff^* | rms/err^*  |     min     |     max     |
 | "Rec/Calo/EcalChi2=>Rec/Calo/EcalPIDe"          |         4 |        814 |     203.50 |     135.66 |      0.0000 |      382.00 |
BremPIDe          SUCCESS Number of counters : 1
 |    Counter                                      |     #     |    sum     | mean/eff^* | rms/err^*  |     min     |     max     |
 | "Rec/Calo/BremChi2=>Rec/Calo/BremPIDe"          |         4 |        257 |     64.250 |     22.376 |      39.000 |      100.00 |
HcalPIDe          SUCCESS Number of counters : 1
 |    Counter                                      |     #     |    sum     | mean/eff^* | rms/err^*  |     min     |     max     |
 | "Rec/Calo/HcalE=>Rec/Calo/HcalPIDe"             |         4 |        564 |     141.00 |     88.862 |      0.0000 |      246.00 |
PrsPIDe           SUCCESS Number of counters : 1
 |    Counter                                      |     #     |    sum     | mean/eff^* | rms/err^*  |     min     |     max     |
 | "Rec/Calo/PrsE=>Rec/Calo/PrsPIDe"               |         4 |        662 |     165.50 |     107.50 |      0.0000 |      301.00 |
EcalPIDmu         SUCCESS Number of counters : 1
 |    Counter                                      |     #     |    sum     | mean/eff^* | rms/err^*  |     min     |     max     |
 | "Rec/Calo/EcalE=>Rec/Calo/EcalPIDmu"            |         4 |        629 |     157.25 |     101.30 |      0.0000 |      283.00 |
HcalPIDmu         SUCCESS Number of counters : 1
 |    Counter                                      |     #     |    sum     | mean/eff^* | rms/err^*  |     min     |     max     |
 | "Rec/Calo/HcalE=>Rec/Calo/HcalPIDmu"            |         4 |        564 |     141.00 |     88.862 |      0.0000 |      246.00 |
PhotonID          SUCCESS Number of counters : 1
 |    Counter                                      |     #     |    sum     | mean/eff^* | rms/err^*  |     min     |     max     |
 | "[ 'Rec/Calo/Photons' ] ==> Rec/Calo/PhotonID"  |         4 |        143 |     35.750 |     21.405 |      0.0000 |      56.000 |
MergedID          SUCCESS Number of counters : 1
 |    Counter                                      |     #     |    sum     | mean/eff^* | rms/err^*  |     min     |     max     |
 | "[ 'Rec/Calo/MergedPi0s' ] ==> Rec/Calo/MergedID|         4 |          5 |     1.2500 |     1.0897 |      0.0000 |      3.0000 |
PhotonFromMergedIDSUCCESS Number of counters : 1
 |    Counter                                      |     #     |    sum     | mean/eff^* | rms/err^*  |     min     |     max     |
 | "[ 'Rec/Calo/SplitPhotons' ] ==> Rec/Calo/Photon|         4 |         10 |     2.5000 |     2.1794 |      0.0000 |      6.0000 |
MuonROFilter      SUCCESS Number of counters : 1
 |    Counter                                      |     #     |    sum     | mean/eff^* | rms/err^*  |     min     |     max     |
 |*"Accepted events"                               |         4 |          4 |(  100.000 +- 25.0000  )%|   -------   |   -------   |
MuonIDAlgLite     SUCCESS Number of counters : 8
 |    Counter                                      |     #     |    sum     | mean/eff^* | rms/err^*  |     min     |     max     |
 | "nGoodOffline"                                  |       245 |        245 |     1.0000 |     0.0000 |      1.0000 |      1.0000 |
 |*"nInAcceptance"                                 |       184 |        184 |(  100.000 +- 0.543478 )%|   -------   |   -------   |
 | "nIsMuon"                                       |         6 |          6 |     1.0000 |     0.0000 |      1.0000 |      1.0000 |
 | "nIsMuonLoose"                                  |         6 |          6 |     1.0000 |     0.0000 |      1.0000 |      1.0000 |
 | "nIsMuonTight"                                  |         3 |          3 |     1.0000 |     0.0000 |      1.0000 |      1.0000 |
 | "nMomentumCut"                                  |       154 |        154 |     1.0000 |     0.0000 |      1.0000 |      1.0000 |
 | "nMuonPIDs"                                     |       184 |        184 |     1.0000 |     0.0000 |      1.0000 |      1.0000 |
 | "nPreSelTrack"                                  |       144 |        144 |     1.0000 |     0.0000 |      1.0000 |      1.0000 |
ChargedProtoPMakerSUCCESS Number of counters : 1
 |    Counter                                      |     #     |    sum     | mean/eff^* | rms/err^*  |     min     |     max     |
 | "Rec/Track/Best ==> Rec/ProtoP/Charged"         |         4 |        297 |     74.250 |     36.833 |      18.000 |      121.00 |
ChargedProtoPAd...SUCCESS Number of counters : 1
 |    Counter                                      |     #     |    sum     | mean/eff^* | rms/err^*  |     min     |     max     |
 | "EcalPIDs(Offline) ==> Rec/ProtoP/Charged"      |         4 |        297 |     74.250 |     36.833 |      18.000 |      121.00 |
ChargedProtoPAd...SUCCESS Number of counters : 1
 |    Counter                                      |     #     |    sum     | mean/eff^* | rms/err^*  |     min     |     max     |
 | "BremPIDs(Offline) ==> Rec/ProtoP/Charged"      |         4 |        297 |     74.250 |     36.833 |      18.000 |      121.00 |
ChargedProtoPAd...SUCCESS Number of counters : 1
 |    Counter                                      |     #     |    sum     | mean/eff^* | rms/err^*  |     min     |     max     |
 | "HcalPIDs(Offline) ==> Rec/ProtoP/Charged"      |         4 |        297 |     74.250 |     36.833 |      18.000 |      121.00 |
ChargedProtoPAd...SUCCESS Number of counters : 1
 |    Counter                                      |     #     |    sum     | mean/eff^* | rms/err^*  |     min     |     max     |
 | "PrsPIDs(Offline) ==> Rec/ProtoP/Charged"       |         4 |        297 |     74.250 |     36.833 |      18.000 |      121.00 |
ChargedProtoPAd...SUCCESS Number of counters : 1
 |    Counter                                      |     #     |    sum     | mean/eff^* | rms/err^*  |     min     |     max     |
 | "SpdPIDs(Offline) ==> Rec/ProtoP/Charged"       |         4 |        297 |     74.250 |     36.833 |      18.000 |      121.00 |
ChargedProtoPAd...SUCCESS Number of counters : 1
 |    Counter                                      |     #     |    sum     | mean/eff^* | rms/err^*  |     min     |     max     |
 | "VeloDEDX ==> Rec/ProtoP/Charged"               |         4 |        297 |     74.250 |     36.833 |      18.000 |      121.00 |
ChargedProtoPAd...SUCCESS Number of counters : 1
 |    Counter                                      |     #     |    sum     | mean/eff^* | rms/err^*  |     min     |     max     |
 | "Rec/Rich/PIDs ==> Rec/ProtoP/Charged"          |         4 |        297 |     74.250 |     36.833 |      18.000 |      121.00 |
ChargedProtoPAd...SUCCESS Number of counters : 1
 |    Counter                                      |     #     |    sum     | mean/eff^* | rms/err^*  |     min     |     max     |
 | "Rec/Muon/MuonPID ==> Rec/ProtoP/Charged"       |         4 |        297 |     74.250 |     36.833 |      18.000 |      121.00 |
ChargedProtoPCo...SUCCESS Number of counters : 1
 |    Counter                                      |     #     |    sum     | mean/eff^* | rms/err^*  |     min     |     max     |
 | "CombineDLL ==> Rec/ProtoP/Charged"             |         4 |        297 |     74.250 |     36.833 |      18.000 |      121.00 |
NeutralProtoPMakerSUCCESS Number of counters : 91
 |    Counter                                      |     #     |    sum     | mean/eff^* | rms/err^*  |     min     |     max     |
 | "#protos in Rec/ProtoP/Neutrals"                |         4 |        158 |     39.500 |     24.151 |      0.0000 |      65.000 |
 | "CaloClusterCode for Photon"                    |       143 |       6635 |     46.399 |     77.430 |     -98.000 |      98.000 |
 | "CaloClusterCode for PhotonFromMergedPi0"       |        10 |        775 |     77.500 |     11.690 |      66.000 |      93.000 |
 | "CaloClusterCode for Pi0Merged"                 |         5 |        161 |     32.200 |     76.101 |     -61.000 |      95.000 |
 | "CaloClusterFrac for Photon"                    |        83 |   84.47701 |     1.0178 |    0.10417 |     0.82142 |      1.5728 |
 | "CaloClusterFrac for PhotonFromMergedPi0"       |        10 |   5.153553 |    0.51536 |    0.28464 |     0.12632 |     0.98777 |
 | "CaloClusterFrac for Pi0Merged"                 |         4 |   3.927421 |    0.98186 |   0.029423 |     0.93091 |     0.99994 |
 | "CaloNeutralE19 for Photon"                     |       143 |   85.73346 |    0.59953 |    0.19958 |     0.26016 |      1.3674 |
 | "CaloNeutralE19 for PhotonFromMergedPi0"        |        10 |    10.1491 |     1.0149 |    0.97694 |     0.37199 |      3.9216 |
 | "CaloNeutralE19 for Pi0Merged"                  |         5 |   2.569794 |    0.51396 |   0.088416 |     0.36366 |     0.62779 |
 | "CaloNeutralE49 for Photon"                     |       143 |   128.5445 |    0.89891 |    0.11405 |     0.61402 |      1.3429 |
 | "CaloNeutralE49 for PhotonFromMergedPi0"        |        10 |    9.10145 |    0.91015 |   0.057138 |     0.80116 |     0.98822 |
 | "CaloNeutralE49 for Pi0Merged"                  |         5 |   4.336478 |    0.86730 |  0.0091481 |     0.85152 |     0.87919 |
 | "CaloNeutralEcal for Photon"                    |       143 |   480265.1 |     3358.5 |     6656.1 |      160.52 |      63675. |
 | "CaloNeutralEcal for PhotonFromMergedPi0"       |        10 |   185420.5 |     18542. |     22426. |      1408.6 |      69248. |
 | "CaloNeutralEcal for Pi0Merged"                 |         5 |   184199.5 |     36840. |     29293. |      6611.5 |      79925. |
 | "CaloNeutralHcal2Ecal for Photon"               |       143 |   14.28442 |   0.099891 |    0.39589 |      0.0000 |      3.2382 |
 | "CaloNeutralHcal2Ecal for PhotonFromMergedPi0"  |        10 |   1.864815 |    0.18648 |    0.36883 |      0.0000 |      1.1574 |
 | "CaloNeutralHcal2Ecal for Pi0Merged"            |         5 |   1.035634 |    0.20713 |    0.40494 |      0.0000 |      1.0169 |
 | "CaloNeutralID for Photon"                      |       143 |    5390767 |     37698. |     3254.3 |      33245. |      43765. |
 | "CaloNeutralID for PhotonFromMergedPi0"         |        10 |     395875 |     39588. |     2939.6 |      34751. |      42984. |
 | "CaloNeutralID for Pi0Merged"                   |         5 |     198001 |     39600. |     2936.3 |      34815. |      42984. |
 | "CaloNeutralPrs for Photon"                     |       143 |   5063.605 |     35.410 |     46.728 |      0.0000 |      257.54 |
 | "CaloNeutralPrs for PhotonFromMergedPi0"        |        10 |   1022.759 |     102.28 |     43.211 |      45.529 |      155.79 |
 | "CaloNeutralPrs for Pi0Merged"                  |         5 |   575.1479 |     115.03 |     42.064 |      55.677 |      155.24 |
 | "CaloNeutralPrsM for Photon"                    |       143 |        360 |     2.5175 |     2.1446 |      0.0000 |      8.0000 |
 | "CaloNeutralPrsM for PhotonFromMergedPi0"       |        10 |         49 |     4.9000 |     1.3000 |      3.0000 |      7.0000 |
 | "CaloNeutralPrsM for Pi0Merged"                 |         5 |         28 |     5.6000 |     1.3565 |      3.0000 |      7.0000 |
 | "CaloNeutralSpd for Photon"                     |       143 |        235 |     1.6434 |     1.8183 |      0.0000 |      7.0000 |
 | "CaloNeutralSpd for PhotonFromMergedPi0"        |        10 |         38 |     3.8000 |     1.6000 |      2.0000 |      7.0000 |
 | "CaloNeutralSpd for Pi0Merged"                  |         5 |         24 |     4.8000 |     1.3266 |      3.0000 |      7.0000 |
 | "CaloPrsM for Photon"                           |         2 |         12 |     6.0000 |     0.0000 |      6.0000 |      6.0000 |
 | "CaloPrsM for Pi0Merged"                        |         3 |         18 |     6.0000 |     0.0000 |      6.0000 |      6.0000 |
 | "CaloPrsM15 for Photon"                         |         2 |          5 |     2.5000 |     1.5000 |      1.0000 |      4.0000 |
 | "CaloPrsM15 for Pi0Merged"                      |         3 |          6 |     2.0000 |     1.4142 |      1.0000 |      4.0000 |
 | "CaloPrsM30 for Photon"                         |         2 |          3 |     1.5000 |    0.50000 |      1.0000 |      2.0000 |
 | "CaloPrsM30 for Pi0Merged"                      |         3 |          4 |     1.3333 |    0.47140 |      1.0000 |      2.0000 |
 | "CaloPrsM45 for Photon"                         |         2 |          1 |    0.50000 |    0.50000 |      0.0000 |      1.0000 |
 | "CaloPrsM45 for Pi0Merged"                      |         3 |          1 |    0.33333 |    0.47140 |      0.0000 |      1.0000 |
 | "CaloPrsNeutralE19 for Photon"                  |       143 |    46.7277 |    0.32677 |    0.37914 |      0.0000 |      1.0000 |
 | "CaloPrsNeutralE19 for PhotonFromMergedPi0"     |        10 |   2.984756 |    0.29848 |    0.24072 |    0.064151 |     0.83392 |
 | "CaloPrsNeutralE19 for Pi0Merged"               |         5 |   1.830564 |    0.36611 |    0.28380 |    0.064151 |     0.83392 |
 | "CaloPrsNeutralE49 for Photon"                  |       143 |   113.2879 |    0.79222 |    0.34680 |      0.0000 |      1.0000 |
 | "CaloPrsNeutralE49 for PhotonFromMergedPi0"     |        10 |   8.923944 |    0.89239 |   0.094301 |     0.74566 |      1.0000 |
 | "CaloPrsNeutralE49 for Pi0Merged"               |         5 |   4.124218 |    0.82484 |   0.087292 |     0.74566 |     0.96643 |
 | "CaloPrsNeutralE4max for Photon"                |       143 |   4408.096 |     30.826 |     39.400 |      0.0000 |      205.70 |
 | "CaloPrsNeutralE4max for PhotonFromMergedPi0"   |        10 |   904.8225 |     90.482 |     38.725 |      43.883 |      150.03 |
 | "CaloPrsNeutralE4max for Pi0Merged"             |         5 |   473.9416 |     94.788 |     37.504 |      49.369 |      150.03 |
 | "CaloPrsShapeAsym for Photon"                   |         2 | 0.08968193 |   0.044841 |    0.12007 |   -0.075227 |     0.16491 |
 | "CaloPrsShapeAsym for Pi0Merged"                |         3 |   -0.11466 |  -0.038220 |    0.15300 |    -0.20434 |     0.16491 |
 | "CaloPrsShapeE2 for Photon"                     |         2 |  0.3790788 |    0.18954 |   0.031049 |     0.15849 |     0.22059 |
 | "CaloPrsShapeE2 for Pi0Merged"                  |         3 |  0.5662709 |    0.18876 |   0.025375 |     0.15849 |     0.22059 |
 | "CaloPrsShapeEmax for Photon"                   |         2 |   0.914914 |    0.45746 |   0.093486 |     0.36397 |     0.55094 |
 | "CaloPrsShapeEmax for Pi0Merged"                |         3 |   1.461712 |    0.48724 |   0.087179 |     0.36397 |     0.55094 |
 | "CaloPrsShapeFr2 for Photon"                    |         2 |    1.59447 |    0.79724 |  0.0013362 |     0.79590 |     0.79857 |
 | "CaloPrsShapeFr2 for Pi0Merged"                 |         3 |    2.04442 |    0.68147 |    0.16372 |     0.44995 |     0.79857 |
 | "CaloShapeAsym for Photon"                      |         2 |  0.3010082 |    0.15050 |   0.031759 |     0.11875 |     0.18226 |
 | "CaloShapeAsym for Pi0Merged"                   |         3 |  0.3213971 |    0.10713 |   0.066593 |    0.020389 |     0.18226 |
 | "CaloShapeE1 for Photon"                        |         2 |   1.082462 |    0.54123 |   0.029157 |     0.51207 |     0.57039 |
 | "CaloShapeE1 for Pi0Merged"                     |         3 |   1.710249 |    0.57008 |   0.047240 |     0.51207 |     0.62779 |
 | "CaloShapeE2 for Photon"                        |         2 |   1.470578 |    0.73529 |   0.051712 |     0.68358 |     0.78700 |
 | "CaloShapeE2 for Pi0Merged"                     |         3 |   2.206981 |    0.73566 |   0.042226 |     0.68358 |     0.78700 |
 | "CaloShapeFr2r4 for Photon"                     |         2 |   1.339729 |    0.66986 |   0.093987 |     0.57588 |     0.76385 |
 | "CaloShapeFr2r4 for Pi0Merged"                  |         3 |   2.108396 |    0.70280 |   0.089769 |     0.57588 |     0.76867 |
 | "CaloShapeKappa for Photon"                     |         2 |  0.6417765 |    0.32089 |    0.11280 |     0.20809 |     0.43369 |
 | "CaloShapeKappa for Pi0Merged"                  |         3 |  0.7263146 |    0.24210 |    0.14455 |    0.084538 |     0.43369 |
 | "CaloTrMatch for Photon"                        |       142 |   8930.883 |     62.894 |     113.91 |      4.1517 |      764.26 |
 | "CaloTrMatch for PhotonFromMergedPi0"           |        10 |    73.5244 |     7.3524 |     4.5722 |     0.12057 |      13.554 |
 | "CaloTrMatch for Pi0Merged"                     |         5 |    36.7622 |     7.3524 |     4.5722 |     0.12057 |      13.554 |
 | "ClusterAsX for Photon"                         |       143 |  -1.211109 | -0.0084693 |    0.19735 |    -0.50157 |     0.53203 |
 | "ClusterAsX for PhotonFromMergedPi0"            |        10 | -0.2790191 |  -0.027902 |    0.17493 |    -0.38161 |     0.23575 |
 | "ClusterAsY for Photon"                         |       143 | -0.7798315 | -0.0054534 |    0.19295 |    -0.48503 |     0.51669 |
 | "ClusterAsY for PhotonFromMergedPi0"            |        10 |   1.665363 |    0.16654 |    0.31386 |    -0.11368 |     0.90980 |
 | "ClusterMass for Pi0Merged"                     |         5 |   263.6825 |     52.737 |     25.745 |      24.469 |      84.665 |
 | "IsNotE for Photon"                             |       143 |   78.57451 |    0.54947 |    0.39888 |     -1.0000 |     0.99552 |
 | "IsNotE for PhotonFromMergedPi0"                |        10 |   3.209731 |    0.32097 |    0.14318 |    0.039351 |     0.58659 |
 | "IsNotE for Pi0Merged"                          |         5 |   1.304132 |    0.26083 |    0.11240 |     0.11811 |     0.45505 |
 | "IsNotH for Photon"                             |       143 |   39.59512 |    0.27689 |    0.38573 |     -1.0000 |     0.98535 |
 | "IsNotH for PhotonFromMergedPi0"                |        10 |   2.637848 |    0.26378 |    0.21733 |  0.00013543 |     0.70602 |
 | "IsNotH for Pi0Merged"                          |         5 |   1.633176 |    0.32664 |    0.12784 |    0.079510 |     0.42598 |
 | "IsPhoton for Photon"                           |       143 |   141.8718 |    0.99211 |   0.078653 |    0.077349 |      1.0000 |
 | "IsPhoton for Pi0Merged"                        |         5 |   3.623347 |    0.72467 |    0.33948 |    0.077349 |      1.0000 |
 | "PhotonID for Photon"                           |       143 |  -294.6893 |    -2.0608 |     5.3641 |     -39.026 |      2.0000 |
 | "PhotonID for PhotonFromMergedPi0"              |        10 |  -39.91273 |    -3.9913 |     9.1736 |     -31.356 |      0.0000 |
 | "PhotonID for Pi0Merged"                        |         5 |  -7.112813 |    -1.4226 |     1.0269 |     -2.5680 |      0.0000 |
 | "Rec/Calo/MergedPi0s=>Rec/ProtoP/Neutrals"      |         4 |          5 |     1.2500 |     1.0897 |      0.0000 |      3.0000 |
 | "Rec/Calo/Photons=>Rec/ProtoP/Neutrals"         |         4 |        143 |     35.750 |     21.405 |      0.0000 |      56.000 |
 | "Rec/Calo/SplitPhotons=>Rec/ProtoP/Neutrals"    |         4 |         10 |     2.5000 |     2.1794 |      0.0000 |      6.0000 |
 | "ShowerShape for Photon"                        |       143 |   664609.6 |     4647.6 |     5190.3 |      376.81 |      45743. |
 | "ShowerShape for PhotonFromMergedPi0"           |        10 |   21446.77 |     2144.7 |     2267.4 |      463.71 |      7282.5 |
 | "ShowerShape for Pi0Merged"                     |         5 |   16872.01 |     3374.4 |     2450.5 |      1332.0 |      8048.0 |
EcalDigitMon      SUCCESS Booked 5 Histogram(s) : 1D=3 2D=2
EcalDigitMon      SUCCESS Number of counters : 1
 |    Counter                                      |     #     |    sum     | mean/eff^* | rms/err^*  |     min     |     max     |
 | "Monitor Raw/Ecal/Digits"                       |         3 |       2709 |     903.00 |     95.209 |      771.00 |      992.00 |
HcalDigitMon      SUCCESS Booked 5 Histogram(s) : 1D=3 2D=2
HcalDigitMon      SUCCESS Number of counters : 1
 |    Counter                                      |     #     |    sum     | mean/eff^* | rms/err^*  |     min     |     max     |
 | "Monitor Raw/Hcal/Digits"                       |         4 |        590 |     147.50 |     66.620 |      33.000 |      196.00 |
PrsDigitMon       SUCCESS Booked 4 Histogram(s) : 1D=2 2D=2
PrsDigitMon       SUCCESS Number of counters : 1
 |    Counter                                      |     #     |    sum     | mean/eff^* | rms/err^*  |     min     |     max     |
 | "Monitor Raw/Prs/Digits"                        |         4 |       2246 |     561.50 |     313.13 |      21.000 |      769.00 |
SpdDigitMon       SUCCESS Booked 2 Histogram(s) : 1D=1 2D=1
SpdDigitMon       SUCCESS Number of counters : 1
 |    Counter                                      |     #     |    sum     | mean/eff^* | rms/err^*  |     min     |     max     |
 | "Monitor Raw/Spd/Digits"                        |         4 |       1582 |     395.50 |     229.11 |      1.0000 |      563.00 |
SpdMon            SUCCESS Booked 6 Histogram(s) : 2D=6
EcalEFlowMon      SUCCESS Number of counters : 1
 |    Counter                                      |     #     |    sum     | mean/eff^* | rms/err^*  |     min     |     max     |
 | "Monitor Raw/Ecal/Digits"                       |         3 |       2703 |     901.00 |     95.209 |      769.00 |      990.00 |
EcalClusterMon    SUCCESS Booked 7 Histogram(s) : 1D=5 2D=2
EcalClusterMon    SUCCESS Number of counters : 1
 |    Counter                                      |     #     |    sum     | mean/eff^* | rms/err^*  |     min     |     max     |
 | "Monitor Rec/Calo/EcalClusters"                 |         3 |        256 |     85.333 |     10.530 |      71.000 |      96.000 |
ElectronMon       SUCCESS Booked 9 Histogram(s) : 1D=7 2D=2
ElectronMon       SUCCESS Number of counters : 1
 |    Counter                                      |     #     |    sum     | mean/eff^* | rms/err^*  |     min     |     max     |
 | "Monitor Rec/Calo/Electrons"                    |         3 |        124 |     41.333 |     8.7305 |      29.000 |      48.000 |
PhotonMon         SUCCESS Booked 9 Histogram(s) : 1D=7 2D=2
PhotonMon         SUCCESS Number of counters : 1
 |    Counter                                      |     #     |    sum     | mean/eff^* | rms/err^*  |     min     |     max     |
 | "Monitor Rec/Calo/Photons"                      |         3 |        143 |     47.667 |     6.5490 |      40.000 |      56.000 |
SplitPhotonMon    SUCCESS Booked 8 Histogram(s) : 1D=6 2D=2
SplitPhotonMon    SUCCESS Number of counters : 1
 |    Counter                                      |     #     |    sum     | mean/eff^* | rms/err^*  |     min     |     max     |
 | "Monitor Rec/Calo/SplitPhotons"                 |         3 |         10 |     3.3333 |     1.8856 |      2.0000 |      6.0000 |
MergedPi0Mon      SUCCESS Booked 8 Histogram(s) : 1D=8
MergedPi0Mon      SUCCESS Number of counters : 1
 |    Counter                                      |     #     |    sum     | mean/eff^* | rms/err^*  |     min     |     max     |
 | "Monitor Rec/Calo/MergedPi0s"                   |         3 |          5 |     1.6667 |    0.94281 |      1.0000 |      3.0000 |
ResolvedPi0Mon    SUCCESS Booked 7 Histogram(s) : 1D=7
ResolvedPi0Mon    SUCCESS Number of counters : 1
 |    Counter                                      |     #     |    sum     | mean/eff^* | rms/err^*  |     min     |     max     |
 | "Monitor Rec/Calo/Photons"                      |         3 |          0 |     0.0000 |     0.0000 |      0.0000 |      0.0000 |
EtaMon            SUCCESS Booked 7 Histogram(s) : 1D=7
EtaMon            SUCCESS Number of counters : 1
 |    Counter                                      |     #     |    sum     | mean/eff^* | rms/err^*  |     min     |     max     |
 | "Monitor Rec/Calo/Photons"                      |         3 |          0 |     0.0000 |     0.0000 |      0.0000 |      0.0000 |
ProtoElectronMon  SUCCESS Booked 7 Histogram(s) : 1D=5 2D=2
ProtoElectronMon  SUCCESS Number of counters : 1
 |    Counter                                      |     #     |    sum     | mean/eff^* | rms/err^*  |     min     |     max     |
 | "Monitor Rec/ProtoP/Charged"                    |         4 |          6 |     1.5000 |     1.1180 |      0.0000 |      3.0000 |
PhotonMatchMon    SUCCESS Booked 5 Histogram(s) : 1D=5
PhotonMatchMon    SUCCESS Number of counters : 3
 |    Counter                                      |     #     |    sum     | mean/eff^* | rms/err^*  |     min     |     max     |
 | "Monitor Rec/Calo/ClusterMatch"                 |         4 |       9902 |     2475.5 |     1448.4 |      0.0000 |      3573.0 |
 | "Monitor Rec/Calo/EcalClusters"                 |         4 |        256 |     64.000 |     38.059 |      0.0000 |      96.000 |
 | "Monitor Rec/Calo/EcalSplitClusters"            |         4 |         10 |     2.5000 |     2.1794 |      0.0000 |      6.0000 |
ElectronMatchMon  SUCCESS Booked 5 Histogram(s) : 1D=5
ElectronMatchMon  SUCCESS Number of counters : 2
 |    Counter                                      |     #     |    sum     | mean/eff^* | rms/err^*  |     min     |     max     |
 | "Monitor Rec/Calo/ElectronMatch"                |         4 |       3622 |     905.50 |     527.69 |      0.0000 |      1316.0 |
 | "Monitor Rec/Calo/Electrons"                    |         4 |        124 |     31.000 |     19.429 |      0.0000 |      48.000 |
BremMatchMon      SUCCESS Booked 5 Histogram(s) : 1D=5
BremMatchMon      SUCCESS Number of counters : 2
 |    Counter                                      |     #     |    sum     | mean/eff^* | rms/err^*  |     min     |     max     |
 | "Monitor Rec/Calo/BremMatch"                    |         4 |       2474 |     618.50 |     393.34 |      0.0000 |      1094.0 |
 | "Monitor Rec/Calo/Photons"                      |         4 |        143 |     35.750 |     21.405 |      0.0000 |      56.000 |
CaloEMuPIDMonUncutSUCCESS Booked 6 Histogram(s) : 1D=6
CaloEMuPIDMonUncutSUCCESS Number of counters : 1
 |    Counter                                      |     #     |    sum     | mean/eff^* | rms/err^*  |     min     |     max     |
 | "nEvents"                                       |         4 |          4 |     1.0000 |     0.0000 |      1.0000 |      1.0000 |
CaloEMuPIDMonSoft SUCCESS Booked 4 Histogram(s) : 1D=4
CaloEMuPIDMonSoft SUCCESS Number of counters : 1
 |    Counter                                      |     #     |    sum     | mean/eff^* | rms/err^*  |     min     |     max     |
 | "nEvents"                                       |         4 |          4 |     1.0000 |     0.0000 |      1.0000 |      1.0000 |
CaloEMuPIDMonHard SUCCESS Booked 4 Histogram(s) : 1D=4
CaloEMuPIDMonHard SUCCESS Number of counters : 1
 |    Counter                                      |     #     |    sum     | mean/eff^* | rms/err^*  |     min     |     max     |
 | "nEvents"                                       |         4 |          4 |     1.0000 |     0.0000 |      1.0000 |      1.0000 |
RichDecodingErrorsSUCCESS Booked 26 Histogram(s) : 2D=1 1DProf=25
RichRecPixelQC    SUCCESS Booked 6 Histogram(s) : 1D=6
RichRecPixelClu...SUCCESS Booked 2 Histogram(s) : 1D=2
RiDownTrkEff      SUCCESS Booked 17 Histogram(s) : 1D=12 1DProf=5
RiCKResDown       SUCCESS Booked 10 Histogram(s) : 1D=10
RiCKResDown       SUCCESS List of booked 1D histograms in directory         "RICH/RiCKResDown" :-
 | ID                        |   Title                                       |    #    |     Mean   |    RMS     |  Skewness  |  Kurtosis  |
 | Rich1Gas/bottom/ckResAllP | "Rich1Gas bottom Rec-Exp Cktheta | All photon |   2252  | 0.00010291 | 0.0029383  |  -0.063829 |    -1.2105 |
 | Rich1Gas/ckResAll         | "Rich1Gas Rec-Exp Cktheta | All photons"      |   3609  | 0.00012811 | 0.0029164  |  -0.056755 |    -1.2037 |
 | Rich1Gas/phiRec           | "Rich1Gas Reconstructed Ch Phi | All photons" |   3609  |     2.9298 | 1.9147     |     0.2668 |    -1.1798 |
 | Rich1Gas/thetaRec         | "Rich1Gas Reconstructed Ch Theta | All photon |   3609  |   0.046843 | 0.0080514  |   -0.43416 |   -0.93574 |
 | Rich1Gas/top/ckResAllPerP | "Rich1Gas top Rec-Exp Cktheta | All photons"  |   1357  | 0.00016567 | 0.0028831  |  -0.044056 |    -1.1962 |
 | Rich2Gas/ASide-left/ckRes | "Rich2Gas ASide-left Rec-Exp Cktheta | All ph |   305   | 6.4482e-06 | 0.0014854  |   0.028061 |    -1.2243 |
 | Rich2Gas/CSide-right/ckRe | "Rich2Gas CSide-right Rec-Exp Cktheta | All p |   1612  | 0.00010235 | 0.0013668  |  -0.057398 |    -1.0984 |
 | Rich2Gas/ckResAll         | "Rich2Gas Rec-Exp Cktheta | All photons"      |   1917  | 8.7422e-05 | 0.0013864  |  -0.045896 |    -1.1179 |
 | Rich2Gas/phiRec           | "Rich2Gas Reconstructed Ch Phi | All photons" |   1917  |     3.0715 | 1.7874     |   0.066737 |     -1.124 |
 | Rich2Gas/thetaRec         | "Rich2Gas Reconstructed Ch Theta | All photon |   1917  |   0.026635 | 0.0054318  |    -1.1887 |    0.68444 |
RiCKResDownTight  SUCCESS Booked 10 Histogram(s) : 1D=10
RiCKResDownTight  SUCCESS List of booked 1D histograms in directory         "RICH/RiCKResDownTight" :-
 | ID                        |   Title                                       |    #    |     Mean   |    RMS     |  Skewness  |  Kurtosis  |
 | Rich1Gas/bottom/ckResAllP | "Rich1Gas bottom Rec-Exp Cktheta | All photon |   234   |-0.00086285 | 0.0027708  |    0.32796 |    -0.9313 |
 | Rich1Gas/ckResAll         | "Rich1Gas Rec-Exp Cktheta | All photons"      |   437   |-0.00017729 | 0.0028105  |    0.04153 |    -1.1486 |
 | Rich1Gas/phiRec           | "Rich1Gas Reconstructed Ch Phi | All photons" |   437   |     3.1817 | 1.9253     |    0.10648 |    -1.4759 |
 | Rich1Gas/thetaRec         | "Rich1Gas Reconstructed Ch Theta | All photon |   437   |    0.04767 | 0.0076118  |   -0.76899 |   -0.23117 |
 | Rich1Gas/top/ckResAllPerP | "Rich1Gas top Rec-Exp Cktheta | All photons"  |   203   | 0.00011875 | 0.0027757  |  -0.075429 |    -1.1564 |
 | Rich2Gas/ASide-left/ckRes | "Rich2Gas ASide-left Rec-Exp Cktheta | All ph |    32   | 0.00023327 | 0.0017825  |   -0.34082 |     -1.549 |
 | Rich2Gas/CSide-right/ckRe | "Rich2Gas CSide-right Rec-Exp Cktheta | All p |    0    |          0 | 0          |          0 |          0 |
 | Rich2Gas/ckResAll         | "Rich2Gas Rec-Exp Cktheta | All photons"      |    32   | 0.00023327 | 0.0017825  |   -0.34082 |     -1.549 |
 | Rich2Gas/phiRec           | "Rich2Gas Reconstructed Ch Phi | All photons" |    32   |     2.9388 | 1.565      |   0.013905 |   -0.54812 |
 | Rich2Gas/thetaRec         | "Rich2Gas Reconstructed Ch Theta | All photon |    32   |   0.024889 | 0.0075467  |   -0.80862 |   -0.96895 |
RiUpTrkEff        SUCCESS Booked 17 Histogram(s) : 1D=12 1DProf=5
RiCKResUp         SUCCESS Booked 10 Histogram(s) : 1D=10
RiCKResUp         SUCCESS List of booked 1D histograms in directory         "RICH/RiCKResUp" :-
 | ID                        |   Title                                       |    #    |     Mean   |    RMS     |  Skewness  |  Kurtosis  |
 | Rich1Gas/bottom/ckResAllP | "Rich1Gas bottom Rec-Exp Cktheta | All photon |    0    |          0 | 0          |          0 |          0 |
 | Rich1Gas/ckResAll         | "Rich1Gas Rec-Exp Cktheta | All photons"      |   463   |-1.3104e-05 | 0.0028768  |   0.031042 |    -1.2131 |
 | Rich1Gas/phiRec           | "Rich1Gas Reconstructed Ch Phi | All photons" |   463   |     3.2476 | 1.8034     |  -0.068322 |    -1.2226 |
 | Rich1Gas/thetaRec         | "Rich1Gas Reconstructed Ch Theta | All photon |   463   |   0.045012 | 0.0082914  |   -0.21496 |    -1.1247 |
 | Rich1Gas/top/ckResAllPerP | "Rich1Gas top Rec-Exp Cktheta | All photons"  |   463   |-1.3104e-05 | 0.0028768  |   0.031042 |    -1.2131 |
 | Rich2Gas/ASide-left/ckRes | "Rich2Gas ASide-left Rec-Exp Cktheta | All ph |    0    |          0 | 0          |          0 |          0 |
 | Rich2Gas/CSide-right/ckRe | "Rich2Gas CSide-right Rec-Exp Cktheta | All p |    0    |          0 | 0          |          0 |          0 |
 | Rich2Gas/ckResAll         | "Rich2Gas Rec-Exp Cktheta | All photons"      |    0    |          0 | 0          |          0 |          0 |
 | Rich2Gas/phiRec           | "Rich2Gas Reconstructed Ch Phi | All photons" |    0    |          0 | 0          |          0 |          0 |
 | Rich2Gas/thetaRec         | "Rich2Gas Reconstructed Ch Theta | All photon |    0    |          0 | 0          |          0 |          0 |
RiCKResUpTight    SUCCESS Booked 10 Histogram(s) : 1D=10
RiCKResUpTight    SUCCESS List of booked 1D histograms in directory         "RICH/RiCKResUpTight" :-
 | ID                        |   Title                                       |    #    |     Mean   |    RMS     |  Skewness  |  Kurtosis  |
 | Rich1Gas/bottom/ckResAllP | "Rich1Gas bottom Rec-Exp Cktheta | All photon |    0    |          0 | 0          |          0 |          0 |
 | Rich1Gas/ckResAll         | "Rich1Gas Rec-Exp Cktheta | All photons"      |    0    |          0 | 0          |          0 |          0 |
 | Rich1Gas/phiRec           | "Rich1Gas Reconstructed Ch Phi | All photons" |    0    |          0 | 0          |          0 |          0 |
 | Rich1Gas/thetaRec         | "Rich1Gas Reconstructed Ch Theta | All photon |    0    |          0 | 0          |          0 |          0 |
 | Rich1Gas/top/ckResAllPerP | "Rich1Gas top Rec-Exp Cktheta | All photons"  |    0    |          0 | 0          |          0 |          0 |
 | Rich2Gas/ASide-left/ckRes | "Rich2Gas ASide-left Rec-Exp Cktheta | All ph |    0    |          0 | 0          |          0 |          0 |
 | Rich2Gas/CSide-right/ckRe | "Rich2Gas CSide-right Rec-Exp Cktheta | All p |    0    |          0 | 0          |          0 |          0 |
 | Rich2Gas/ckResAll         | "Rich2Gas Rec-Exp Cktheta | All photons"      |    0    |          0 | 0          |          0 |          0 |
 | Rich2Gas/phiRec           | "Rich2Gas Reconstructed Ch Phi | All photons" |    0    |          0 | 0          |          0 |          0 |
 | Rich2Gas/thetaRec         | "Rich2Gas Reconstructed Ch Theta | All photon |    0    |          0 | 0          |          0 |          0 |
RiLongTrkEff      SUCCESS Booked 17 Histogram(s) : 1D=12 1DProf=5
RiCKResLong       SUCCESS Booked 10 Histogram(s) : 1D=10
RiCKResLong       SUCCESS List of booked 1D histograms in directory         "RICH/RiCKResLong" :-
 | ID                        |   Title                                       |    #    |     Mean   |    RMS     |  Skewness  |  Kurtosis  |
 | Rich1Gas/bottom/ckResAllP | "Rich1Gas bottom Rec-Exp Cktheta | All photon |   964   | 0.00013181 | 0.0028823  |  -0.057864 |    -1.1814 |
 | Rich1Gas/ckResAll         | "Rich1Gas Rec-Exp Cktheta | All photons"      |   2281  |   0.000152 | 0.0028448  |  -0.061391 |    -1.1467 |
 | Rich1Gas/phiRec           | "Rich1Gas Reconstructed Ch Phi | All photons" |   2281  |     2.9706 | 1.6708     |    0.15637 |   -0.95121 |
 | Rich1Gas/thetaRec         | "Rich1Gas Reconstructed Ch Theta | All photon |   2281  |   0.048501 | 0.0070481  |   -0.83799 |  -0.054868 |
 | Rich1Gas/top/ckResAllPerP | "Rich1Gas top Rec-Exp Cktheta | All photons"  |   1317  | 0.00016879 | 0.0028132  |   -0.06361 |    -1.1172 |
 | Rich2Gas/ASide-left/ckRes | "Rich2Gas ASide-left Rec-Exp Cktheta | All ph |   663   | 8.3415e-06 | 0.0014019  |  -0.022207 |    -1.1332 |
 | Rich2Gas/CSide-right/ckRe | "Rich2Gas CSide-right Rec-Exp Cktheta | All p |   1079  |-5.0055e-05 | 0.0014064  |   0.079222 |    -1.1457 |
 | Rich2Gas/ckResAll         | "Rich2Gas Rec-Exp Cktheta | All photons"      |   1742  | -3.059e-05 | 0.0014052  |   0.045473 |    -1.1445 |
 | Rich2Gas/phiRec           | "Rich2Gas Reconstructed Ch Phi | All photons" |   1742  |     3.2187 | 1.8277     |  -0.063706 |    -1.2014 |
 | Rich2Gas/thetaRec         | "Rich2Gas Reconstructed Ch Theta | All photon |   1742  |   0.025702 | 0.0053901  |   -0.89311 |    -0.1004 |
RiCKResLongTight  SUCCESS Booked 10 Histogram(s) : 1D=10
RiCKResLongTight  SUCCESS List of booked 1D histograms in directory         "RICH/RiCKResLongTight" :-
 | ID                        |   Title                                       |    #    |     Mean   |    RMS     |  Skewness  |  Kurtosis  |
 | Rich1Gas/bottom/ckResAllP | "Rich1Gas bottom Rec-Exp Cktheta | All photon |   187   | 0.00050978 | 0.0029318  |   -0.27226 |    -1.2117 |
 | Rich1Gas/ckResAll         | "Rich1Gas Rec-Exp Cktheta | All photons"      |   793   | 0.00017153 | 0.0028888  |   -0.08844 |      -1.17 |
 | Rich1Gas/phiRec           | "Rich1Gas Reconstructed Ch Phi | All photons" |   793   |     2.7988 | 1.5099     |    0.22761 |   -0.73016 |
 | Rich1Gas/thetaRec         | "Rich1Gas Reconstructed Ch Theta | All photon |   793   |   0.048777 | 0.0070553  |    -1.1292 |    0.77828 |
 | Rich1Gas/top/ckResAllPerP | "Rich1Gas top Rec-Exp Cktheta | All photons"  |   606   | 4.0816e-05 | 0.0028613  |   -0.02045 |    -1.1225 |
 | Rich2Gas/ASide-left/ckRes | "Rich2Gas ASide-left Rec-Exp Cktheta | All ph |   289   |-0.00019938 | 0.0013482  |   0.027251 |   -0.97745 |
 | Rich2Gas/CSide-right/ckRe | "Rich2Gas CSide-right Rec-Exp Cktheta | All p |   182   |-0.00041292 | 0.0014619  |    0.28901 |      -1.13 |
 | Rich2Gas/ckResAll         | "Rich2Gas Rec-Exp Cktheta | All photons"      |   471   |-0.00030142 | 0.0014078  |    0.14869 |    -1.0831 |
 | Rich2Gas/phiRec           | "Rich2Gas Reconstructed Ch Phi | All photons" |   471   |     3.5136 | 1.9692     |   -0.32224 |    -1.2777 |
 | Rich2Gas/thetaRec         | "Rich2Gas Reconstructed Ch Theta | All photon |   471   |   0.025158 | 0.0046835  |   -0.52919 |   -0.91795 |
MuonPIDMonitorDownSUCCESS Booked 70 Histogram(s) : 1D=58 1DProf=12
MuonPIDMonitorLongSUCCESS Booked 70 Histogram(s) : 1D=58 1DProf=12
MuonTrackAligMo...SUCCESS Booked 62 Histogram(s) : 1D=42 1DProf=20
VeloClusterMonitorSUCCESS Booked 15 Histogram(s) : 1D=12 2D=3
VeloClusterMonitorSUCCESS Number of counters : 2
 |    Counter                                      |     #     |    sum     | mean/eff^* | rms/err^*  |     min     |     max     |
 | "# VeloClusters"                                |         4 |      15763 |     3940.8 |     1395.8 |      1743.0 |      5610.0 |
 | "# events"                                      |         4 |          4 |     1.0000 |     0.0000 |      1.0000 |      1.0000 |
VeloTrackMonitor  SUCCESS Booked 114 Histogram(s) : 1D=19 1DProf=95
VeloIPResolutio...SUCCESS Booked 21 Histogram(s) : 1D=21
VeloIPResolutio...SUCCESS Number of counters : 4
 |    Counter                                      |     #     |    sum     | mean/eff^* | rms/err^*  |     min     |     max     |
 | "Events Analysed"                               |         4 |          4 |     1.0000 |     0.0000 |      1.0000 |      1.0000 |
 | "Events Selected"                               |         1 |          1 |     1.0000 |     0.0000 |      1.0000 |      1.0000 |
 | "No vertices at Rec/Vertex/Primary"             |         2 |          2 |     1.0000 |     0.0000 |      1.0000 |      1.0000 |
 | "PVs Analysed"                                  |         1 |          1 |     1.0000 |     0.0000 |      1.0000 |      1.0000 |
OTTimeMonitor     SUCCESS Booked 9 Histogram(s) : 1D=8 1DProf=1
OTTrackMonitor    SUCCESS Booked 67 Histogram(s) : 1D=47 2D=7 1DProf=13
OTHitEfficiency...SUCCESS Booked 101 Histogram(s) : 1D=9 2D=21 1DProf=47 2DProf=24
TTClusterMonitor  SUCCESS Booked 18 Histogram(s) : 1D=13 2D=4 1DProf=1
TTClusterMonitor  SUCCESS Number of counters : 1
 |    Counter                                      |     #     |    sum     | mean/eff^* | rms/err^*  |     min     |     max     |
 | "Number of events"                              |         4 |          4 |     1.0000 |     0.0000 |      1.0000 |      1.0000 |
ITClusterMonitor  SUCCESS Booked 14 Histogram(s) : 1D=9 2D=4 1DProf=1
ITClusterMonitor  SUCCESS Number of counters : 1
 |    Counter                                      |     #     |    sum     | mean/eff^* | rms/err^*  |     min     |     max     |
 | "Number of events"                              |         4 |          4 |     1.0000 |     0.0000 |      1.0000 |      1.0000 |
OverallEventPro...SUCCESS Booked 1 Histogram(s) : 1D=1
TrackEventProcTimeSUCCESS Booked 1 Histogram(s) : 1D=1
VertexEventProc...SUCCESS Booked 1 Histogram(s) : 1D=1
RichEventProcTime SUCCESS Booked 1 Histogram(s) : 1D=1
CaloEventProcTime SUCCESS Booked 1 Histogram(s) : 1D=1
MuonEventProcTime SUCCESS Booked 1 Histogram(s) : 1D=1
ProtoEventProcTimeSUCCESS Booked 1 Histogram(s) : 1D=1
ProcStatAbortMoni SUCCESS Booked 1 Histogram(s) : 1DProf=1
TrackMonitor      SUCCESS Booked 335 Histogram(s) : 1D=275 1DProf=60
TrackMonitor      SUCCESS Number of counters : 7
 |    Counter                                      |     #     |    sum     | mean/eff^* | rms/err^*  |     min     |     max     |
 | "#Downstream"                                   |         4 |        183 |     45.750 |     27.779 |      0.0000 |      75.000 |
 | "#Long"                                         |         4 |         62 |     15.500 |     12.990 |      0.0000 |      36.000 |
 | "#Tracks"                                       |         4 |       1199 |     299.75 |     147.87 |      93.000 |      511.00 |
 | "#Ttrack"                                       |         4 |        569 |     142.25 |     96.092 |      0.0000 |      271.00 |
 | "#Upstream"                                     |         4 |         52 |     13.000 |     4.1231 |      8.0000 |      18.000 |
 | "#Velo"                                         |         4 |        143 |     35.750 |     14.272 |      19.000 |      54.000 |
 | "#VeloBackward"                                 |         4 |        190 |     47.500 |     12.619 |      30.000 |      65.000 |
TrackDiMuonMonitorSUCCESS Booked 1 Histogram(s) : 1D=1
TrackDiMuonMonitorSUCCESS Number of counters : 4
 |    Counter                                      |     #     |    sum     | mean/eff^* | rms/err^*  |     min     |     max     |
 | "numcombinations"                               |         4 |          0 |     0.0000 |     0.0000 |      0.0000 |      0.0000 |
 | "numnegtracks"                                  |         4 |          0 |     0.0000 |     0.0000 |      0.0000 |      0.0000 |
 | "numpostracks"                                  |         4 |          6 |     1.5000 |     1.5000 |      0.0000 |      4.0000 |
 | "numselected"                                   |         4 |          0 |     0.0000 |     0.0000 |      0.0000 |      0.0000 |
TrackVertexMonitorSUCCESS Booked 61 Histogram(s) : 1D=43 1DProf=18
AlignmentOnline...SUCCESS Booked 34 Histogram(s) : 1D=34
TrackV0Monitor    SUCCESS Booked 22 Histogram(s) : 1D=22
TrackFitMatchMo...SUCCESS Booked 73 Histogram(s) : 1D=29 1DProf=44
TrackAlignMonitor SUCCESS Booked 27 Histogram(s) : 1D=18 1DProf=9
TrackITOverlapM...SUCCESS Booked 326 Histogram(s) : 1D=218 2D=108
TrackVeloOverla...SUCCESS Booked 192 Histogram(s) : 1D=192
TTTrackMonitor    SUCCESS Booked 40 Histogram(s) : 1D=34 1DProf=6
ITTrackMonitor    SUCCESS Booked 251 Histogram(s) : 1D=243 2D=2 1DProf=6
TrackPV2HalfAli...SUCCESS Booked 16 Histogram(s) : 1D=14 1DProf=2
TrackEcalMatchM...SUCCESS Booked 32 Histogram(s) : 1D=24 1DProf=8
TrackSpdMatchMo...SUCCESS Booked 32 Histogram(s) : 1D=24 1DProf=8
TrackPrsMatchMo...SUCCESS Booked 32 Histogram(s) : 1D=24 1DProf=8
TrackMuonMatchM...SUCCESS Booked 16 Histogram(s) : 1D=16
ChargedProtoPMoni SUCCESS Booked 29 Histogram(s) : 1DProf=29
ChargedProtoANN...SUCCESS Booked 18 Histogram(s) : 1D=18
ChargedProtoANN...SUCCESS List of booked 1D histograms in directory         "PROTO/ChargedProtoANNPIDMoni" :-
 | ID                        |   Title                                       |    #    |     Mean   |    RMS     |  Skewness  |  Kurtosis  |
 | Downstream/ElectronANN    | "Downstream Electron ANN PID"                 |   183   |   0.014841 | 0.050268   |     5.8055 |     39.921 |
 | Downstream/GhostANN       | "Downstream Ghost ANN PID"                    |   183   |     0.9213 | 0.14616    |    -3.4303 |     12.825 |
 | Downstream/KaonANN        | "Downstream Kaon ANN PID"                     |   183   |   0.003948 | 0.0089927  |     5.4885 |     39.012 |
 | Downstream/MuonANN        | "Downstream Muon ANN PID"                     |   183   | 8.3531e-05 | 0.001114   |     98.614 |     549.99 |
 | Downstream/PionANN        | "Downstream Pion ANN PID"                     |   183   |   0.049923 | 0.12312    |     4.5023 |     22.355 |
 | Downstream/ProtonANN      | "Downstream Proton ANN PID"                   |   183   |  0.0072621 | 0.012405   |     3.2991 |     12.094 |
 | Long/ElectronANN          | "Long Electron ANN PID"                       |    62   |   0.025586 | 0.057901   |     2.8077 |     7.5576 |
 | Long/GhostANN             | "Long Ghost ANN PID"                          |    62   |    0.75527 | 0.3166     |    -1.1975 |    0.03243 |
 | Long/KaonANN              | "Long Kaon ANN PID"                           |    62   |   0.036877 | 0.14006    |     4.9367 |     24.431 |
 | Long/MuonANN              | "Long Muon ANN PID"                           |    62   |  0.0033042 | 0.018359   |     6.5662 |     41.762 |
 | Long/PionANN              | "Long Pion ANN PID"                           |    62   |    0.16193 | 0.25865    |     1.7185 |     1.8694 |
 | Long/ProtonANN            | "Long Proton ANN PID"                         |    62   |   0.025948 | 0.087948   |     4.8575 |     23.775 |
 | Upstream/ElectronANN      | "Upstream Electron ANN PID"                   |    52   |   0.063202 | 0.1058     |      2.659 |     7.4534 |
 | Upstream/GhostANN         | "Upstream Ghost ANN PID"                      |    52   |     0.7408 | 0.2733     |   -0.91346 |    -0.4937 |
 | Upstream/KaonANN          | "Upstream Kaon ANN PID"                       |    52   |   0.014588 | 0.024272   |     2.3632 |     4.4441 |
 | Upstream/MuonANN          | "Upstream Muon ANN PID"                       |    52   |  0.0029595 | 0.0081092  |     3.9437 |     15.676 |
 | Upstream/PionANN          | "Upstream Pion ANN PID"                       |    52   |    0.12355 | 0.16445    |     1.6705 |     1.7383 |
 | Upstream/ProtonANN        | "Upstream Proton ANN PID"                     |    52   |  0.0076181 | 0.011283   |     2.1426 |     4.5581 |
MuMonitor         SUCCESS Booked 4 Histogram(s) : 1D=3 1DProf=1
EventTimeMonitor  SUCCESS Booked 4 Histogram(s) : 1D=4
PackTracks        SUCCESS Number of counters : 1
 |    Counter                                      |     #     |    sum     | mean/eff^* | rms/err^*  |     min     |     max     |
 | "# PackedTracks"                                |         4 |       1199 |     299.75 |     147.87 |      93.000 |      511.00 |
PackRichPIDs      SUCCESS Number of counters : 1
 |    Counter                                      |     #     |    sum     | mean/eff^* | rms/err^*  |     min     |     max     |
 | "# PackedData"                                  |         4 |        283 |     70.750 |     35.506 |      16.000 |      115.00 |
PackMuonPIDs      SUCCESS Number of counters : 1
 |    Counter                                      |     #     |    sum     | mean/eff^* | rms/err^*  |     min     |     max     |
 | "# PackedData"                                  |         4 |        184 |     46.000 |     29.453 |      0.0000 |      82.000 |
PackMuonTracks    SUCCESS Number of counters : 1
 |    Counter                                      |     #     |    sum     | mean/eff^* | rms/err^*  |     min     |     max     |
 | "# PackedTracks"                                |         4 |          6 |     1.5000 |     1.5000 |      0.0000 |      4.0000 |
DstWriter            INFO Events output: 4
FSROutputStream...   INFO Set up File Summary Record
FSROutputStream...   INFO Events output: 1
EventLoopMgr         INFO Histograms converted successfully according to request.
TransportSvc      SUCCESS  GEOMETRY ERRORS: 'Skip'     map has the size 3
   |                      Logical Volume                     |    |  #          mean             RMS          min              max    |
   | BeforeMagnetRegion/Velo/lvVelo                          | mm | 1       -1.169887                   0 -1.169887           -1.1698 |
   | BeforeMagnetRegion/Velo/lvVelo                          | X0 | 1       -0.081491919                0 -0.081491919     -0.0814919 |
   | DownstreamRegion/lvDownstreamRegion                     | mm | 2       -84.376526          76.012526 -160.38905             -8.3 |
   | DownstreamRegion/lvDownstreamRegion                     | X0 | 2       -4.9018929          4.4159825 -9.3178753         -0.48591 |
   | agnetRegion/PipeSupportsInMagnet/lvUX85SupportsInMagnet | mm | 1       -2.9061866                  0 -2.9061866         -2.90618 |
   | agnetRegion/PipeSupportsInMagnet/lvUX85SupportsInMagnet | X0 | 1       -0.036763621    3.2047269e-10 -0.036763621     -0.0367636 |

TransportSvc      SUCCESS  GEOMETRY ERRORS: 'Recover'  map has the size 7
   |                      Logical Volume                     |    |  #          mean             RMS          min              max    |
   | AfterMagnetRegion/T/lvT                                 | mm | 89      1.5246841          0.95787647 0.057315259          3.6550 |
   | AfterMagnetRegion/T/lvT                                 | X0 | 89      0                           0 0                           |
   | BeforeMagnetRegion/Velo/RFFoil/lvRFFoil                 | mm | 16      0.00022753296   0.00013069264 1.1008663e-05   0.000419722 |
   | BeforeMagnetRegion/Velo/RFFoil/lvRFFoil                 | X0 | 16      0                           0 0                           |
   | BeforeMagnetRegion/Velo/lvVelo                          | mm | 2       2.9426444           2.7671301 0.1755143           5.70977 |
   | BeforeMagnetRegion/Velo/lvVelo                          | X0 | 2       0.17188736         0.16163512 0.010252237        0.333522 |
   | BeforeMagnetRegion/Velo/lvVeloLeft                      | mm | 6       4.020307            3.8193058 0.20048224          7.85000 |
   | BeforeMagnetRegion/Velo/lvVeloLeft                      | X0 | 6       0.00012141      0.00012141042 0               0.000243142 |
   | DownstreamRegion/lvDownstreamRegion                     | mm | 5       116.29304           173.19908 0.65426406          447.386 |
   | DownstreamRegion/lvDownstreamRegion                     | X0 | 5       6.722235            10.075781 0                   25.9896 |
   | agnetRegion/PipeSupportsInMagnet/lvUX85SupportsInMagnet | mm | 10      1.0095169           2.0644805 0.1000622            7.0760 |
   | agnetRegion/PipeSupportsInMagnet/lvUX85SupportsInMagnet | X0 | 10      0.043223382       0.094997551 0.00079949389      0.321574 |
   | MagnetRegion/lvMagnetRegion                             | mm | 5       0.10006312      4.3682237e-05 0.10002601         0.100116 |
   | MagnetRegion/lvMagnetRegion                             | X0 | 5       6.2813843e-05   2.7421184e-08 6.2790551e-05   6.2847405e- |

TransportSvc      SUCCESS  GEOMETRY ERRORS: 'Codes'    map has the size 0

SingleElectronR...SUCCESS Number of counters : 1
 |    Counter                                      |     #     |    sum     | mean/eff^* | rms/err^*  |     min     |     max     |
 | "Delta(Z)"                                      |       124 |   5259.285 |     42.414 |     13.182 |      11.481 |      87.464 |
SingleElectronR...SUCCESS Number of counters : 2
 |    Counter                                      |     #     |    sum     | mean/eff^* | rms/err^*  |     min     |     max     |
 | "Delta(X)"                                      |       124 |   75.99567 |    0.61287 |     11.777 |     -20.942 |      24.411 |
 | "Delta(Y)"                                      |       124 |   189.9616 |     1.5319 |     10.819 |     -20.932 |      24.255 |
SingleElectronR...SUCCESS Number of counters : 1
 |    Counter                                      |     #     |    sum     | mean/eff^* | rms/err^*  |     min     |     max     |
 | "Delta(E)"                                      |       124 |   210630.4 |     1698.6 |     1039.0 |      342.73 |      5115.2 |
SingleElectronR...SUCCESS Number of counters : 1
 |    Counter                                      |     #     |    sum     | mean/eff^* | rms/err^*  |     min     |     max     |
 | "selected clusters"                             |       145 |        124 |    0.85517 |    0.35193 |      0.0000 |      1.0000 |
MergedPi0Rec.LC...SUCCESS Number of counters : 1
 |    Counter                                      |     #     |    sum     | mean/eff^* | rms/err^*  |     min     |     max     |
 | "Delta(Z)"                                      |        10 |   604.3649 |     60.436 |     15.505 |      40.486 |      87.087 |
MergedPi0Rec.SC...SUCCESS Number of counters : 2
 |    Counter                                      |     #     |    sum     | mean/eff^* | rms/err^*  |     min     |     max     |
 | "Delta(X)"                                      |        10 |  -28.98077 |    -2.8981 |     8.3404 |     -20.933 |      8.3303 |
 | "Delta(Y)"                                      |        10 |   21.53798 |     2.1538 |     9.9735 |     -9.5788 |      22.836 |
MergedPi0Rec.EC...SUCCESS Number of counters : 1
 |    Counter                                      |     #     |    sum     | mean/eff^* | rms/err^*  |     min     |     max     |
 | "Delta(E)"                                      |        10 |   21097.55 |     2109.8 |     1965.3 |      563.85 |      7649.9 |
SinglePhotonRec...SUCCESS Number of counters : 1
 |    Counter                                      |     #     |    sum     | mean/eff^* | rms/err^*  |     min     |     max     |
 | "Delta(Z)"                                      |       143 |   7311.031 |     51.126 |     19.448 |      8.9348 |      92.176 |
SinglePhotonRec...SUCCESS Number of counters : 2
 |    Counter                                      |     #     |    sum     | mean/eff^* | rms/err^*  |     min     |     max     |
 | "Delta(X)"                                      |       143 |  -28.74813 |   -0.20104 |     12.575 |     -20.926 |      24.446 |
 | "Delta(Y)"                                      |       143 |   35.69522 |    0.24962 |     12.093 |     -20.942 |      24.402 |
SinglePhotonRec...SUCCESS Number of counters : 1
 |    Counter                                      |     #     |    sum     | mean/eff^* | rms/err^*  |     min     |     max     |
 | "Delta(E)"                                      |       143 |   106925.5 |     747.73 |     796.94 |      90.713 |      4706.2 |
ToolSvc.TrackSt...SUCCESS Number of counters : 2
 |    Counter                                      |     #     |    sum     | mean/eff^* | rms/err^*  |     min     |     max     |
 | "Number of states added"                        |         3 |        183 |     61.000 |     9.9331 |      53.000 |      75.000 |
 | "Number of tracks seen"                         |         5 |        227 |     45.400 |     38.888 |      0.0000 |      97.000 |
PatForward.PatF...SUCCESS Number of counters : 2
 |    Counter                                      |     #     |    sum     | mean/eff^* | rms/err^*  |     min     |     max     |
 | "#FinishedTracks"                               |       275 |         94 |    0.34182 |    0.51122 |      0.0000 |      2.0000 |
 | "#Seeds"                                        |       275 |        275 |     1.0000 |     0.0000 |      1.0000 |      1.0000 |
ToolSvc.Hlt2Hlt...SUCCESS Number of counters : 1
 |    Counter                                      |     #     |    sum     | mean/eff^* | rms/err^*  |     min     |     max     |
 | "# loaded from CACHE"                           |         1 |          1 |     1.0000 |     0.0000 |      1.0000 |      1.0000 |
ToolSvc.Hlt1Hlt...SUCCESS Number of counters : 1
 |    Counter                                      |     #     |    sum     | mean/eff^* | rms/err^*  |     min     |     max     |
 | "# loaded from CACHE"                           |         1 |          1 |     1.0000 |     0.0000 |      1.0000 |      1.0000 |
ToolSvc.HltFactorySUCCESS Number of counters : 1
 |    Counter                                      |     #     |    sum     | mean/eff^* | rms/err^*  |     min     |     max     |
 | "# loaded from CACHE"                           |         5 |          5 |     1.0000 |     0.0000 |      1.0000 |      1.0000 |
BrunelInit.Brun...SUCCESS Booked 4 Histogram(s) : 1D=4
BrunelInit.Brun...SUCCESS Number of counters : 2
 |    Counter                                      |     #     |    sum     | mean/eff^* | rms/err^*  |     min     |     max     |
 | "Delta Memory/MB"                               |         3 |     194.14 |     64.713 |     87.235 |      0.0000 |      188.03 |
 | "Total Memory/MB"                               |         4 |   4986.204 |     1246.6 |     82.340 |      1104.0 |      1298.1 |
MergedPi0Rec.Sp...SUCCESS Number of counters : 1
 |    Counter                                      |     #     |    sum     | mean/eff^* | rms/err^*  |     min     |     max     |
 | "Delta(Z)"                                      |       385 |   37024.36 |     96.167 |     10.159 |      81.000 |      118.24 |
MergedPi0Rec.Sp...SUCCESS Number of counters : 2
 |    Counter                                      |     #     |    sum     | mean/eff^* | rms/err^*  |     min     |     max     |
 | "Delta(X)"                                      |       385 |  -966.9679 |    -2.5116 |     7.7956 |     -20.933 |      8.6794 |
 | "Delta(Y)"                                      |       385 |   1511.867 |     3.9269 |     10.068 |     -9.9395 |      24.451 |
EcalShare.Photo...SUCCESS Number of counters : 1
 |    Counter                                      |     #     |    sum     | mean/eff^* | rms/err^*  |     min     |     max     |
 | "Delta(Z)"                                      |      3383 |   287684.1 |     85.038 |     11.073 |      50.874 |      117.04 |
EcalShare.Photo...SUCCESS Number of counters : 2
 |    Counter                                      |     #     |    sum     | mean/eff^* | rms/err^*  |     min     |     max     |
 | "Delta(X)"                                      |      3383 |  -787.0356 |   -0.23264 |     12.300 |     -20.942 |      24.452 |
 | "Delta(Y)"                                      |      3383 |   561.9062 |    0.16610 |     12.028 |     -20.942 |      24.255 |
ToolSvc.FilterToolSUCCESS Number of counters : 1
 |    Counter                                      |     #     |    sum     | mean/eff^* | rms/err^*  |     min     |     max     |
 | "offset scale (SpdMult)"                        |        16 |       6328 |     395.50 |     229.11 |      1.0000 |      563.00 |
ToolSvc.TrackVe...SUCCESS Number of counters : 2
 |    Counter                                      |     #     |    sum     | mean/eff^* | rms/err^*  |     min     |     max     |
 | "Number of states added"                        |         2 |          0 |     0.0000 |     0.0000 |      0.0000 |      0.0000 |
 | "Number of tracks seen"                         |         5 |         33 |     6.6000 |     10.874 |      0.0000 |      28.000 |
ToolSvc.PatSeedFitSUCCESS Exceptions/Errors/Warnings/Infos Statistics : 0/0/1/0
ToolSvc.PatSeedFitSUCCESS  #WARNINGS   = 13       Message = 'Stub fit failed, using best guess parameters [TrackBestTrackCreator]'
ToolSvc.PatAddT...SUCCESS Number of counters : 2
 |    Counter                                      |     #     |    sum     | mean/eff^* | rms/err^*  |     min     |     max     |
 | "#TT hits added"                                |        42 |        157 |     3.7381 |    0.65681 |      3.0000 |      5.0000 |
 | "#tracks with hits added"                       |        42 |         42 |     1.0000 |     0.0000 |      1.0000 |      1.0000 |
PatForward.PatF...SUCCESS Number of counters : 2
 |    Counter                                      |     #     |    sum     | mean/eff^* | rms/err^*  |     min     |     max     |
 | "#TT hits added"                                |        56 |        194 |     3.4643 |    0.53333 |      3.0000 |      5.0000 |
 | "#tracks with hits added"                       |        56 |         56 |     1.0000 |     0.0000 |      1.0000 |      1.0000 |
ToolSvc.OTChann...SUCCESS Exceptions/Errors/Warnings/Infos Statistics : 0/0/1/0
ToolSvc.OTChann...SUCCESS  #WARNINGS   = 1        Message = 'Updating OT channel map for bank version 3 [PatForward]'
ToolSvc.CaloGetterSUCCESS Number of counters : 3
 |    Counter                                      |     #     |    sum     | mean/eff^* | rms/err^*  |     min     |     max     |
 | "#Digits   @ Raw/Hcal/Digits"                   |         3 |        557 |     185.67 |     9.5336 |      173.00 |      196.00 |
 | "#Digits   @ Raw/Prs/Digits"                    |         3 |       2225 |     741.67 |     29.937 |      700.00 |      769.00 |
 | "#Digits   @ Raw/Spd/Digits"                    |         3 |       1581 |     527.00 |     28.612 |      493.00 |      563.00 |
RichTrackSegmen...SUCCESS Number of counters : 1
 |    Counter                                      |     #     |    sum     | mean/eff^* | rms/err^*  |     min     |     max     |
 | "Number of tracks seen"                         |         5 |          0 |     0.0000 |     0.0000 |      0.0000 |      0.0000 |
RichTrackSegmen...SUCCESS Number of counters : 1
 |    Counter                                      |     #     |    sum     | mean/eff^* | rms/err^*  |     min     |     max     |
 | "Number of tracks seen"                         |         5 |          0 |     0.0000 |     0.0000 |      0.0000 |      0.0000 |
RichTrackSegmen...SUCCESS Number of counters : 1
 |    Counter                                      |     #     |    sum     | mean/eff^* | rms/err^*  |     min     |     max     |
 | "Number of tracks seen"                         |         5 |          0 |     0.0000 |     0.0000 |      0.0000 |      0.0000 |
ApplicationMgr       INFO Application Manager Finalized successfully
ApplicationMgr       INFO Application Manager Terminated successfully
