# setting LC_ALL to "C"
# --> Including file '/afs/cern.ch/user/s/sstemmle/gitTmp/ForCommit/Testing/New/nl2/BrunelDev_HEAD/Rec/Brunel/tests/options/testBrunel-defaults.py'
# <-- End of file '/afs/cern.ch/user/s/sstemmle/gitTmp/ForCommit/Testing/New/nl2/BrunelDev_HEAD/Rec/Brunel/tests/options/testBrunel-defaults.py'
# --> Including file '/cvmfs/lhcb.cern.ch/lib/lhcb/DBASE/AppConfig/v3r346/options/Brunel/MC-WithTruth.py'
# <-- End of file '/cvmfs/lhcb.cern.ch/lib/lhcb/DBASE/AppConfig/v3r346/options/Brunel/MC-WithTruth.py'
# --> Including file '/tmp/sstemmle/tmpv4t7Lo.py'
# <-- End of file '/tmp/sstemmle/tmpv4t7Lo.py'
# applying configuration of Brunel
# WARNING: Property 'DataType' is set in both 'Brunel' and 'LHCbApp', using 'Brunel.DataType'
# WARNING: Property 'Simulation' is set in both 'Brunel' and 'LHCbApp', using 'Brunel.Simulation'
# /***** User Brunel/Brunel **************************************************************************
# |-FilterTrackStates   = True
# |-PhysFilterMask      = None
# |-DatasetName         = 'Brunel'
# |-Histograms          = 'OfflineFull'
# |-DBSnapshotDirectory = '/group/online/hlt/conditions'
# |-ProductionMode      = False
# |-WriteLumi           = False
# |-SplitRawEventInput  = None
# |-PackType            = 'TES'
# |-DDDBtag             = ''
# |-WithMC              = True  (default: False)
# |-MainSequence        = ['ProcessPhase/Reco', 'ProcessPhase/Moni', 'ProcessPhase/MCLinks', 'ProcessPhase/Check']
# |                     (default: None)
# |-OutputType          = 'NONE'  (default: 'DST')
# |-DisableTiming       = True  (default: False)
# |-DigiType            = 'Default'
# |-UseDBSnapshot       = False
# |-PartitionName       = 'LHCb'
# |-VetoHltErrorEvents  = False  (default: True)
# |-MCCheckSequence     = ['Pat']  (default: None)
# |-InputType           = 'DIGI'  (default: 'MDF')
# |-OnlineMode          = False
# |-WriteFSR            = True
# |-SkipTracking        = False
# |-SkipEvents          = 0
# |-PrintFreq           = 1
# |-Detectors           = ['VP', 'UT', 'FT']  (default: None)
# |-EvtMax              = -1
# |-Simulation          = True  (default: False)
# |-MergeGenFSR         = True
# |-Context             = 'Offline'
# |-RichSequences       = ['RICHFUTURE']  (default: ['RICHFUTURE'])
# |-RecoSequence        = ['Decoding', 'TrFast']  (default: None)
# |-CondDBtag           = ''
# |-MCLinksSequence     = ['L0', 'Unpack', 'Tr', 'Calo']  (default: ['L0', 'Unpack', 'Tr', 'Calo'])
# |-Hlt2FilterCode      = ''
# |-Hlt1FilterCode      = ''
# |-OutputLevel         = 3
# |-InitSequence        = ['Brunel']  (default: None)
# |-DataType            = 'Upgrade'  (default: '2016')
# |-NoWarnings          = False
# |-SplitRawEventOutput = 4.3
# |-RecL0Only           = False
# |-RawBanksToKill      = None
# |-SpecialData         = []  (default: [])
# |-Monitors            = ['SC', 'FPE']  (default: [])
# \----- (End of User Brunel/Brunel) -----------------------------------------------------------------
# /***** User RecSysConf/RecSysConf ******************************************************************
# |-SkipTracking  = False
# |-DataType      = 'Upgrade'  (default: '')
# |-OutputLevel   = 3
# |-Histograms    = 'OfflineFull'
# |-Detectors     = ['VP', 'UT', 'FT']  (default: ['Velo', 'TT', 'IT', 'OT', 'Rich', 'Tr', 'Calo', 'Muon', 'L0'])
# |-OutputType    = 'NONE'  (default: '')
# |-Simulation    = True  (default: False)
# |-Context       = 'Offline'
# |-RichSequences = ['RICHFUTURE']  (default: ['RICHFUTURE'])
# |-RecoSequence  = ['Decoding', 'TrFast']  (default: None)
# |-SpecialData   = []  (default: [])
# |-OnlineMode    = False
# \----- (End of User RecSysConf/RecSysConf) ---------------------------------------------------------
# /***** User TrackSys/TrackSys **********************************************************************
# |-FilterBeforeFit          = True
# |-TrackingSequence         = []  (default: [])
# |-ExpertTracking           = []  (default: [])
# |-ExpertHistos             = False
# |-TrackExtraInfoAlgorithms = []  (default: [])
# |-DataType                 = 'Upgrade'  (default: '2011')
# |-WithMC                   = True  (default: False)
# |-TrackTypes               = []  (default: [])
# |-OutputType               = ''
# |-Simulation               = True  (default: False)
# |-OldCloneKiller           = False
# |-ForceNewSeq              = False
# |-GlobalCuts               = {}  (default: {})
# |-ExcludedLayers           = []  (default: [])
# |-ForceOldSeq              = False
# |-SpecialData              = []  (default: [])
# |-HltMode                  = False
# |-TrackPatRecAlgorithms    = []  (default: [])
# \----- (End of User TrackSys/TrackSys) -------------------------------------------------------------
# /***** User RecMoniConf/RecMoniConf ****************************************************************
# |-SkipTracking  = False
# |-DataType      = 'Upgrade'  (default: '')
# |-Detectors     = ['VP', 'UT', 'FT']  (default: ['Velo', 'TT', 'IT', 'OT', 'Rich', 'Tr', 'Calo', 'Muon', 'L0'])
# |-Histograms    = 'OfflineFull'
# |-OutputLevel   = 3
# |-Simulation    = True  (default: False)
# |-Context       = 'Offline'
# |-MoniSequence  = []  (default: None)
# |-RichSequences = ['RICHFUTURE']  (default: ['RICHFUTURE'])
# |-OnlineMode    = False
# |-CheckEnabled  = True  (default: False)
# \----- (End of User RecMoniConf/RecMoniConf) -------------------------------------------------------
# WARNING: Run upgrade checkers.
# No Writer defined for DIGI
ApplicationMgr    SUCCESS
====================================================================================================================================
                                                   Welcome to BrunelDev version HEAD
                                          running on lxplus083.cern.ch on Fri Dec  1 11:57:30 2017
====================================================================================================================================
ApplicationMgr       INFO Application Manager Configured successfully
StatusCodeSvc        INFO initialize
ToolSvc.GitDDDB      INFO opening Git repository '/cvmfs/lhcb.cern.ch/lib/lhcb/git-conddb/DDDB.git'
ToolSvc.GitDDDB      INFO using commit 'upgrade/dddb-20170301' corresponding to d277f5e21d6fa797f89330eb6205859971e46fe9
ToolSvc.GitSIMCOND   INFO opening Git repository '/cvmfs/lhcb.cern.ch/lib/lhcb/git-conddb/SIMCOND.git'
ToolSvc.GitSIMCOND   INFO using commit 'upgrade/sim-20170301-vc-md100' corresponding to 5f8531f8a9a85d86a13c350dcbe32ef37b2dac5e
DetectorPersist...   INFO Added successfully Conversion service:XmlCnvSvc
DetectorDataSvc   SUCCESS Detector description database: git:/lhcb.xml
TransportSvc         INFO Initialize the static pointer to DetDesc::IGeometryErrorSvc
TransportSvc         INFO Recovery of geometry errors is  ENABLED
BrunelSequencer      INFO Member list: ProcessPhase/Init, GaudiSequencer/PhysicsSeq, ProcessPhase/Output, with context 'Offline'
RndmGenSvc.Engine    INFO Generator engine type:CLHEP::RanluxEngine
RndmGenSvc.Engine    INFO Current Seed:1234567 Luxury:3
RndmGenSvc           INFO Using Random engine:HepRndm::Engine<CLHEP::RanluxEngine>
Init                 INFO Member list: GaudiSequencer/InitBrunelSeq, with context 'Offline'
InitBrunelSeq        INFO Member list: RecInit/BrunelInit, EventCountHisto/BrunelEventCount, with context 'Offline'
BrunelInit        SUCCESS ==================================================================
BrunelInit        SUCCESS Requested to process all events on input file(s)
BrunelInit        SUCCESS ==================================================================
RootHistSvc          INFO Writing ROOT histograms to: Brunel-histos.root
HistogramPersis...   INFO Added successfully Conversion service:RootHistSvc
PhysicsSeq           INFO Member list: ProcessPhase/Reco, ProcessPhase/Moni, ProcessPhase/MCLinks, ProcessPhase/Check, with context 'Offline'
Reco                 INFO Member list: GaudiSequencer/RecoDecodingSeq, GaudiSequencer/RecoTrFastSeq, with context 'Offline'
RecoDecodingSeq      INFO Member list: RawBankToSTClusterAlg/createUTClusters, RawBankToSTLiteClusterAlg/createUTLiteClusters, FTRawBankDecoder/createFTClusters, PrGECFilter, PrStoreUTHit, PrStoreFTHit, with context 'Offline'
DeFTDetector         INFO Current FT geometry version =   61
PrStoreFTHit         INFO FtDEt = DetectorElement::/dd/Structure/LHCb/AfterMagnetRegion/T/FTGeometryInfo::GeometryInfoPlus::name=/dd/Structure/LHCb/AfterMagnetRegion/T/FT; LVolume=/dd/Geometry/AfterMagnetRegion/T/FT/lvFT; supported by /dd/Structure/LHCb/AfterMagnetRegion/T with ReplicaPath=(0,) (pvFT);

RecoTrFastSeq        INFO Member list: PrPixelTracking/PrPixelTrackingFast, PatPV3D, PrVeloUT/PrVeloUTFast, PrForwardTracking/PrForwardTrackingFast, ParameterizedKalmanFit/ForwardFitterAlgParamFast, with context 'Offline'
DeVP                 INFO There are 208 sensors (left: 104, right: 104)
MagneticFieldSvc     INFO Opened magnetic field file : /cvmfs/lhcb.cern.ch/lib/lhcb/DBASE/FieldMap/v5r7/cdf/field.v5r0.c1.down.cdf
MagneticFieldSvc     INFO Opened magnetic field file : /cvmfs/lhcb.cern.ch/lib/lhcb/DBASE/FieldMap/v5r7/cdf/field.v5r0.c2.down.cdf
MagneticFieldSvc     INFO Opened magnetic field file : /cvmfs/lhcb.cern.ch/lib/lhcb/DBASE/FieldMap/v5r7/cdf/field.v5r0.c3.down.cdf
MagneticFieldSvc     INFO Opened magnetic field file : /cvmfs/lhcb.cern.ch/lib/lhcb/DBASE/FieldMap/v5r7/cdf/field.v5r0.c4.down.cdf
MagneticFieldSvc     INFO Map scaled by factor 1 with polarity internally used: -1 signed relative current: -1
ToolSvc.PrUTMag...   INFO Start generation of VeloUT Bdl LUTs
ToolSvc.PrUTMag...   INFO Generation of VeloUT Bdl LUTs finished
ToolSvc.PrUTMag...   INFO Start generation of VeloUT deflection LUTs
ToolSvc.PrUTMag...   INFO Generation of VeloUT deflection LUTs finished
ToolSvc.UTClust...   INFO APE set to 0
ToolSvc.UTClust...   INFO Error Vec 0.257 0.245 0.277 0.208
Moni                 INFO Member list: , with context 'Offline'
MCLinks              INFO Member list: GaudiSequencer/MCLinksL0Seq, GaudiSequencer/MCLinksUnpackSeq, GaudiSequencer/MCLinksTrSeq, GaudiSequencer/MCLinksCaloSeq, with context 'Offline'
MCLinksL0Seq         INFO Member list: , with context 'Offline'
MCLinksUnpackSeq     INFO Member list: UnpackMCParticle, UnpackMCVertex, with context 'Offline'
MCLinksTrSeq         INFO Member list: VPClusterLinker, PrLHCbID2MCParticle, PrTrackAssociator, with context 'Offline'
PrTrackAssociator    INFO Processing all tracks containers in /Event/Rec/Track
MCLinksCaloSeq       INFO Member list: CaloDigit2MCLinks2Table, CaloClusterMCTruth, CaloHypoMCTruth, with context 'Offline'
Check                INFO Member list: GaudiSequencer/CheckPatSeq, with context 'Offline'
CheckPatSeq          INFO Member list: PrChecker2/PrChecker2Fast, PrChecker2, TrackResChecker/TrackResCheckerFast, with context 'Offline'
TrackResChecker...   INFO MCParticle Momentum cut     : 0 GeV/c < P < 1.79769e+305 GeV/c
TrackResChecker...   INFO            Beta * gamma cut : 0 < beta*gamma
TrackResChecker...   INFO            Eta cut          : -1.79769e+308 < P < 1.79769e+308
Output               INFO Member list: , with context 'Offline'
EventPersistenc...   INFO Added successfully Conversion service:RootCnvSvc
EventSelector        INFO Stream:EventSelector.DataStreamTool_1 Def:DATAFILE='root://eoslhcb.cern.ch//eos/lhcb/grid/prod/lhcb/swtest/lhcb/swtest/SciFi-v61/Boole-13104012-100ev-20170301.digi' SVC='Gaudi::RootEvtSelector' OPT='READ'
ApplicationMgr       INFO Application Manager Initialized successfully
ApplicationMgr       INFO Application Manager Started successfully
BrunelInit           INFO Evt 1,  Run 1,  Nr. in job = 1
BrunelInit           INFO Evt 2,  Run 1,  Nr. in job = 2
BrunelInit           INFO Evt 3,  Run 1,  Nr. in job = 3
BrunelInit           INFO Evt 4,  Run 1,  Nr. in job = 4
BrunelInit           INFO Evt 5,  Run 1,  Nr. in job = 5
BrunelInit           INFO Evt 6,  Run 1,  Nr. in job = 6
BrunelInit           INFO Evt 7,  Run 1,  Nr. in job = 7
BrunelInit           INFO Evt 8,  Run 1,  Nr. in job = 8
BrunelInit           INFO Evt 9,  Run 1,  Nr. in job = 9
BrunelInit           INFO Evt 10,  Run 1,  Nr. in job = 10
BrunelInit           INFO Evt 11,  Run 1,  Nr. in job = 11
BrunelInit           INFO Evt 12,  Run 1,  Nr. in job = 12
BrunelInit           INFO Evt 13,  Run 1,  Nr. in job = 13
BrunelInit           INFO Evt 14,  Run 1,  Nr. in job = 14
BrunelInit           INFO Evt 15,  Run 1,  Nr. in job = 15
BrunelInit           INFO Evt 16,  Run 1,  Nr. in job = 16
BrunelInit           INFO Evt 17,  Run 1,  Nr. in job = 17
BrunelInit           INFO Evt 18,  Run 1,  Nr. in job = 18
BrunelInit           INFO Evt 19,  Run 1,  Nr. in job = 19
BrunelInit           INFO Evt 20,  Run 1,  Nr. in job = 20
BrunelInit           INFO Evt 21,  Run 1,  Nr. in job = 21
BrunelInit           INFO Evt 22,  Run 1,  Nr. in job = 22
BrunelInit           INFO Evt 23,  Run 1,  Nr. in job = 23
BrunelInit           INFO Evt 24,  Run 1,  Nr. in job = 24
BrunelInit           INFO Evt 25,  Run 1,  Nr. in job = 25
BrunelInit           INFO Evt 26,  Run 1,  Nr. in job = 26
BrunelInit           INFO Evt 27,  Run 1,  Nr. in job = 27
BrunelInit           INFO Evt 28,  Run 1,  Nr. in job = 28
BrunelInit           INFO Evt 29,  Run 1,  Nr. in job = 29
BrunelInit           INFO Evt 30,  Run 1,  Nr. in job = 30
BrunelInit           INFO Evt 31,  Run 1,  Nr. in job = 31
BrunelInit           INFO Evt 32,  Run 1,  Nr. in job = 32
BrunelInit           INFO Evt 33,  Run 1,  Nr. in job = 33
BrunelInit           INFO Evt 34,  Run 1,  Nr. in job = 34
BrunelInit           INFO Evt 35,  Run 1,  Nr. in job = 35
BrunelInit           INFO Evt 36,  Run 1,  Nr. in job = 36
BrunelInit           INFO Evt 37,  Run 1,  Nr. in job = 37
BrunelInit           INFO Evt 38,  Run 1,  Nr. in job = 38
BrunelInit           INFO Evt 39,  Run 1,  Nr. in job = 39
BrunelInit           INFO Evt 40,  Run 1,  Nr. in job = 40
BrunelInit           INFO Evt 41,  Run 1,  Nr. in job = 41
BrunelInit           INFO Evt 42,  Run 1,  Nr. in job = 42
BrunelInit           INFO Evt 43,  Run 1,  Nr. in job = 43
BrunelInit           INFO Evt 44,  Run 1,  Nr. in job = 44
BrunelInit           INFO Evt 45,  Run 1,  Nr. in job = 45
BrunelInit           INFO Evt 46,  Run 1,  Nr. in job = 46
BrunelInit           INFO Evt 47,  Run 1,  Nr. in job = 47
BrunelInit           INFO Evt 48,  Run 1,  Nr. in job = 48
BrunelInit           INFO Evt 49,  Run 1,  Nr. in job = 49
BrunelInit           INFO Evt 50,  Run 1,  Nr. in job = 50
BrunelInit           INFO Evt 51,  Run 1,  Nr. in job = 51
BrunelInit           INFO Evt 52,  Run 1,  Nr. in job = 52
BrunelInit           INFO Evt 53,  Run 1,  Nr. in job = 53
BrunelInit           INFO Evt 54,  Run 1,  Nr. in job = 54
BrunelInit           INFO Evt 55,  Run 1,  Nr. in job = 55
BrunelInit           INFO Evt 56,  Run 1,  Nr. in job = 56
BrunelInit           INFO Evt 57,  Run 1,  Nr. in job = 57
BrunelInit           INFO Evt 58,  Run 1,  Nr. in job = 58
BrunelInit           INFO Evt 59,  Run 1,  Nr. in job = 59
BrunelInit           INFO Evt 60,  Run 1,  Nr. in job = 60
BrunelInit           INFO Evt 61,  Run 1,  Nr. in job = 61
BrunelInit           INFO Evt 62,  Run 1,  Nr. in job = 62
BrunelInit           INFO Evt 63,  Run 1,  Nr. in job = 63
BrunelInit           INFO Evt 64,  Run 1,  Nr. in job = 64
BrunelInit           INFO Evt 65,  Run 1,  Nr. in job = 65
BrunelInit           INFO Evt 66,  Run 1,  Nr. in job = 66
BrunelInit           INFO Evt 67,  Run 1,  Nr. in job = 67
BrunelInit           INFO Evt 68,  Run 1,  Nr. in job = 68
BrunelInit           INFO Evt 69,  Run 1,  Nr. in job = 69
BrunelInit           INFO Evt 70,  Run 1,  Nr. in job = 70
BrunelInit           INFO Evt 71,  Run 1,  Nr. in job = 71
BrunelInit           INFO Evt 72,  Run 1,  Nr. in job = 72
BrunelInit           INFO Evt 73,  Run 1,  Nr. in job = 73
BrunelInit           INFO Evt 74,  Run 1,  Nr. in job = 74
BrunelInit           INFO Evt 75,  Run 1,  Nr. in job = 75
BrunelInit           INFO Evt 76,  Run 1,  Nr. in job = 76
BrunelInit           INFO Evt 77,  Run 1,  Nr. in job = 77
BrunelInit           INFO Evt 78,  Run 1,  Nr. in job = 78
BrunelInit           INFO Evt 79,  Run 1,  Nr. in job = 79
BrunelInit           INFO Evt 80,  Run 1,  Nr. in job = 80
BrunelInit           INFO Evt 81,  Run 1,  Nr. in job = 81
BrunelInit           INFO Evt 82,  Run 1,  Nr. in job = 82
BrunelInit           INFO Evt 83,  Run 1,  Nr. in job = 83
BrunelInit           INFO Evt 84,  Run 1,  Nr. in job = 84
BrunelInit           INFO Evt 85,  Run 1,  Nr. in job = 85
BrunelInit           INFO Evt 86,  Run 1,  Nr. in job = 86
BrunelInit           INFO Evt 87,  Run 1,  Nr. in job = 87
BrunelInit           INFO Evt 88,  Run 1,  Nr. in job = 88
BrunelInit           INFO Evt 89,  Run 1,  Nr. in job = 89
BrunelInit           INFO Evt 90,  Run 1,  Nr. in job = 90
BrunelInit           INFO Evt 91,  Run 1,  Nr. in job = 91
BrunelInit           INFO Evt 92,  Run 1,  Nr. in job = 92
BrunelInit           INFO Evt 93,  Run 1,  Nr. in job = 93
BrunelInit           INFO Evt 94,  Run 1,  Nr. in job = 94
BrunelInit           INFO Evt 95,  Run 1,  Nr. in job = 95
BrunelInit           INFO Evt 96,  Run 1,  Nr. in job = 96
BrunelInit           INFO Evt 97,  Run 1,  Nr. in job = 97
BrunelInit           INFO Evt 98,  Run 1,  Nr. in job = 98
BrunelInit           INFO Evt 99,  Run 1,  Nr. in job = 99
BrunelInit           INFO Memory has changed from 1639820 to 1684912 KB (45092KB, 2.74981%) in last 100 events
BrunelInit           INFO Evt 100,  Run 1,  Nr. in job = 100
EventLoopMgr         INFO No more events in event selection
ApplicationMgr       INFO Application Manager Stopped successfully
BrunelInit        SUCCESS ==================================================================
BrunelInit        SUCCESS 100 events processed
BrunelInit        SUCCESS ==================================================================
BrunelEventCount     INFO 100 events processed
BrunelEventCount  SUCCESS Booked 1 Histogram(s) : 1D=1
createUTClusters     INFO Successfully processed 100 %
createUTClusters  SUCCESS Number of counters : 3
 |    Counter                                      |     #     |    sum     | mean/eff^* | rms/err^*  |     min     |     max     |
 | "# banks found"                                 |     18000 |      18000 |     1.0000 |     0.0000 |      1.0000 |      1.0000 |
 | "# valid banks"                                 |     18000 |      18000 |     1.0000 |     0.0000 |      1.0000 |      1.0000 |
 | "skipped Banks"                                 |         0 |          0 |     0.0000 |     0.0000 | 1.7977e+308 |-1.7977e+308 |
createUTLiteClu...   INFO Successfully processed 100 %
createUTLiteClu...SUCCESS Number of counters : 3
 |    Counter                                      |     #     |    sum     | mean/eff^* | rms/err^*  |     min     |     max     |
 | "# valid banks"                                 |     18000 |      18000 |     1.0000 |     0.0000 |      1.0000 |      1.0000 |
 | "# valid source ID"                             |     18000 |      18000 |     1.0000 |     0.0000 |      1.0000 |      1.0000 |
 | "skipped Banks"                                 |         0 |          0 |     0.0000 |     0.0000 | 1.7977e+308 |-1.7977e+308 |
PrVeloUTFast      SUCCESS Number of counters : 2
 |    Counter                                      |     #     |    sum     | mean/eff^* | rms/err^*  |     min     |     max     |
 | "#seeds"                                        |       100 |      34346 |     343.46 |     156.58 |      98.000 |      821.00 |
 | "#tracks"                                       |       100 |      10982 |     109.82 |     58.570 |      26.000 |      303.00 |
CaloDigit2MCLin...SUCCESS Number of counters : 1
 |    Counter                                      |     #     |    sum     | mean/eff^* | rms/err^*  |     min     |     max     |
 | "#CD2MC links"                                  |       100 |          0 |     0.0000 |     0.0000 |      0.0000 |      0.0000 |
CaloClusterMCTruthSUCCESS Number of counters : 1
 |    Counter                                      |     #     |    sum     | mean/eff^* | rms/err^*  |     min     |     max     |
 | "#CC2MC links"                                  |       100 |          0 |     0.0000 |     0.0000 |      0.0000 |      0.0000 |
CaloHypoMCTruth   SUCCESS Number of counters : 4
 |    Counter                                      |     #     |    sum     | mean/eff^* | rms/err^*  |     min     |     max     |
 | "No container Rec/Calo/Electrons"               |       100 |        100 |     1.0000 |     0.0000 |      1.0000 |      1.0000 |
 | "No container Rec/Calo/MergedPi0s"              |       100 |        100 |     1.0000 |     0.0000 |      1.0000 |      1.0000 |
 | "No container Rec/Calo/Photons"                 |       100 |        100 |     1.0000 |     0.0000 |      1.0000 |      1.0000 |
 | "No container Rec/Calo/SplitPhotons"            |       100 |        100 |     1.0000 |     0.0000 |      1.0000 |      1.0000 |
PrChecker2Fast       INFO Results
PrChecker2Fast....   INFO **** Forward                          4368 tracks including            470 ghosts [10.76 %], Event average  6.56 % ****
PrChecker2Fast....   INFO **** for P>3GeV,Pt>0.5GeV             3980 tracks including           375 ghosts [9.42 %]  ****
PrChecker2Fast....   INFO                          01_long :    3730 from     8825 [ 42.27 %]     41 clones [ 1.09 %], purity: 99.30 %, hitEff: 95.15 %
PrChecker2Fast....   INFO                     02_long>5GeV :    3288 from     5720 [ 57.48 %]     20 clones [ 0.60 %], purity: 99.39 %, hitEff: 95.74 %
PrChecker2Fast....   INFO                  03_long_strange :     106 from      442 [ 23.98 %]      2 clones [ 1.85 %], purity: 98.63 %, hitEff: 92.32 %
PrChecker2Fast....   INFO             04_long_strange>5GeV :      79 from      201 [ 39.30 %]      1 clones [ 1.25 %], purity: 98.87 %, hitEff: 93.92 %
PrChecker2Fast....   INFO                    05_long_fromB :     332 from      469 [ 70.79 %]      3 clones [ 0.90 %], purity: 99.55 %, hitEff: 95.91 %
PrChecker2Fast....   INFO               06_long_fromB>5GeV :     318 from      383 [ 83.03 %]      2 clones [ 0.62 %], purity: 99.57 %, hitEff: 96.24 %
PrChecker2Fast....   INFO   07_long_fromB_P>3GeV_Pt>0.5GeV :     325 from      357 [ 91.04 %]      2 clones [ 0.61 %], purity: 99.57 %, hitEff: 96.09 %
PrChecker2Fast....   INFO                              GeV :     325 from      357 [ 91.04 %]      2 clones [ 0.61 %], purity: 99.57 %, hitEff: 96.09 %
PrChecker2Fast....   INFO
PrChecker2Fast....   INFO **** TT Efficiency for Rec/Track/ForwardFast ****     506 ghost,  3.92 TT per track
PrChecker2Fast....   INFO **** for P>3GeV,Pt>0.5GeV                       4017 tracks including           380 ghosts [ 9.5 %]  ****
PrChecker2Fast....   INFO                                    01_long :  3771 tr  4.00 from  4.07 mcTT [ 98.4 %]  0.04 ghost hits on real tracks [ 1.0 %]
PrChecker2Fast....   INFO                               01_long >3TT :  3771 tr  4.00 from  4.07 mcTT [ 98.4 %]  0.04 ghost hits on real tracks [ 1.0 %]
PrChecker2Fast....   INFO                               02_long>5GeV :  3308 tr  4.01 from  4.07 mcTT [ 98.6 %]  0.04 ghost hits on real tracks [ 1.0 %]
PrChecker2Fast....   INFO                          02_long>5GeV >3TT :  3308 tr  4.01 from  4.07 mcTT [ 98.6 %]  0.04 ghost hits on real tracks [ 1.0 %]
PrChecker2Fast....   INFO             03_long_fromB_P>3GeV_Pt>0.5GeV :   327 tr  3.99 from  4.09 mcTT [ 97.6 %]  0.04 ghost hits on real tracks [ 1.0 %]
PrChecker2Fast....   INFO        03_long_fromB_P>3GeV_Pt>0.5GeV >3TT :   327 tr  3.99 from  4.09 mcTT [ 97.6 %]  0.04 ghost hits on real tracks [ 1.0 %]
PrChecker2Fast....   INFO          04_TT_long_fromB_P>3GeV_Pt>0.5GeV :   327 tr  3.99 from  4.09 mcTT [ 97.6 %]  0.04 ghost hits on real tracks [ 1.0 %]
PrChecker2Fast....   INFO     04_TT_long_fromB_P>3GeV_Pt>0.5GeV >3TT :   327 tr  3.99 from  4.09 mcTT [ 97.6 %]  0.04 ghost hits on real tracks [ 1.0 %]
PrChecker2Fast....   INFO
PrChecker2           INFO Results
PrChecker2.Velo      INFO **** Velo                            29592 tracks including            688 ghosts [ 2.32 %], Event average  1.78 % ****
PrChecker2.Velo      INFO                          01_velo :   14933 from    15136 [ 98.66 %]    439 clones [ 2.86 %], purity: 99.78 %, hitEff: 95.11 %
PrChecker2.Velo      INFO                          02_long :    8789 from     8825 [ 99.59 %]     99 clones [ 1.11 %], purity: 99.85 %, hitEff: 97.88 %
PrChecker2.Velo      INFO                     03_long>5GeV :    5697 from     5720 [ 99.60 %]     46 clones [ 0.80 %], purity: 99.86 %, hitEff: 98.33 %
PrChecker2.Velo      INFO                  04_long_strange :     435 from      442 [ 98.42 %]      6 clones [ 1.36 %], purity: 99.57 %, hitEff: 97.44 %
PrChecker2.Velo      INFO             05_long_strange>5GeV :     197 from      201 [ 98.01 %]      2 clones [ 1.01 %], purity: 99.53 %, hitEff: 98.37 %
PrChecker2.Velo      INFO                    06_long_fromB :     467 from      469 [ 99.57 %]      1 clones [ 0.21 %], purity: 99.88 %, hitEff: 98.54 %
PrChecker2.Velo      INFO               07_long_fromB>5GeV :     381 from      383 [ 99.48 %]      1 clones [ 0.26 %], purity: 99.94 %, hitEff: 98.68 %
PrChecker2.Velo      INFO
PrChecker2.Upst...   INFO **** Upstream                        10552 tracks including           2069 ghosts [19.61 %], Event average 16.06 % ****
PrChecker2.Upst...   INFO                          01_velo :    8233 from    15136 [ 54.39 %]     41 clones [ 0.50 %], purity: 99.42 %, hitEff: 97.15 %
PrChecker2.Upst...   INFO                       02_velo+UT :    8181 from    13339 [ 61.33 %]     41 clones [ 0.50 %], purity: 99.49 %, hitEff: 97.13 %
PrChecker2.Upst...   INFO                  03_velo+UT>5GeV :    5507 from     6903 [ 79.78 %]     24 clones [ 0.43 %], purity: 99.57 %, hitEff: 98.33 %
PrChecker2.Upst...   INFO                  04_velo+notLong :    2050 from     6311 [ 32.48 %]     11 clones [ 0.53 %], purity: 99.13 %, hitEff: 95.72 %
PrChecker2.Upst...   INFO               05_velo+UT+notLong :    2013 from     4617 [ 43.60 %]     11 clones [ 0.54 %], purity: 99.33 %, hitEff: 95.64 %
PrChecker2.Upst...   INFO          06_velo+UT+notLong>5GeV :    1010 from     1274 [ 79.28 %]      6 clones [ 0.59 %], purity: 99.48 %, hitEff: 98.31 %
PrChecker2.Upst...   INFO                          07_long :    6183 from     8825 [ 70.06 %]     30 clones [ 0.48 %], purity: 99.52 %, hitEff: 97.62 %
PrChecker2.Upst...   INFO                     08_long>5GeV :    4512 from     5720 [ 78.88 %]     18 clones [ 0.40 %], purity: 99.56 %, hitEff: 98.33 %
PrChecker2.Upst...   INFO                    09_long_fromB :     410 from      469 [ 87.42 %]      1 clones [ 0.24 %], purity: 99.60 %, hitEff: 97.73 %
PrChecker2.Upst...   INFO               10_long_fromB>5GeV :     358 from      383 [ 93.47 %]      1 clones [ 0.28 %], purity: 99.60 %, hitEff: 97.84 %
PrChecker2.Upst...   INFO
TrackResChecker...   INFO      ************************************
TrackResChecker...   INFO ALL/x pull     :  mean =  -0.022 +/- 0.018, RMS = 1.110 +/- 0.016
TrackResChecker...   INFO ALL/y pull     :  mean =  -0.005 +/- 0.018, RMS = 1.102 +/- 0.016
TrackResChecker...   INFO ALL/tx pull    :  mean =  0.025 +/- 0.018, RMS = 1.103 +/- 0.017
TrackResChecker...   INFO ALL/ty pull    :  mean =  0.005 +/- 0.018, RMS = 1.094 +/- 0.016
TrackResChecker...   INFO ALL/p pull     :  mean =  -0.035 +/- 0.019, RMS = 1.172 +/- 0.018
TrackResChecker...   INFO ALL/x resolution:  RMS =  4.163 +/- 0.203 micron
TrackResChecker...   INFO ALL/y resolution:  RMS =  3.957 +/- 0.175 micron
TrackResChecker...   INFO ALL/dp/p:  mean =  -0.0001 +/- 0.0001, RMS =  0.0054 +/- 0.0002
EventLoopMgr         INFO Histograms converted successfully according to request.
TransportSvc      SUCCESS  GEOMETRY ERRORS: 'Skip'     map has the size 0

TransportSvc      SUCCESS  GEOMETRY ERRORS: 'Recover'  map has the size 0

TransportSvc      SUCCESS  GEOMETRY ERRORS: 'Codes'    map has the size 0

TransportSvc         INFO Reset the static pointer to DetDesc::IGeometyrErrorSvc
RootCnvSvc           INFO Disconnected data IO:2616734E-8502-E711-90A5-5CF9DD33C028 [root://eoslhcb.cern.ch//eos/lhcb/grid/prod/lhcb/swtest/lhcb/swtest/SciFi-v61/Boole-13104012-100ev-20170301.digi]
ToolSvc              INFO Removing all tools created by ToolSvc
TrackResChecker...SUCCESS Booked 21 Histogram(s) : 1D=17 2D=4
ToolSvc.MCHybri...SUCCESS Number of counters : 1
 |    Counter                                      |     #     |    sum     | mean/eff^* | rms/err^*  |     min     |     max     |
 | "# loaded from PYTHON"                          |       128 |        128 |     1.0000 |     0.0000 |      1.0000 |      1.0000 |
BrunelInit.Brun...SUCCESS Booked 4 Histogram(s) : 1D=4
BrunelInit.Brun...SUCCESS Number of counters : 2
 |    Counter                                      |     #     |    sum     | mean/eff^* | rms/err^*  |     min     |     max     |
 | "Delta Memory/MB"                               |        91 |       28.4 |    0.31209 |     1.3395 |      0.0000 |      7.3040 |
 | "Total Memory/MB"                               |       100 |   167216.7 |     1672.2 |     9.3993 |      1639.8 |      1684.9 |
BrunelInit.Brun...SUCCESS Exceptions/Errors/Warnings/Infos Statistics : 0/0/1/0
BrunelInit.Brun...SUCCESS  #WARNINGS   = 2        Message = 'Delta Memory for the event exceeds 3*sigma'
DataOnDemandSvc      INFO Handled "DataFault" incidents: 0/0/4504(Alg/Node/Total).
StatusCodeSvc        INFO listing all unchecked return codes:
StatusCodeSvc        INFO
Num | Function                       | Source Library
----+--------------------------------+------------------------------------------
  2 | PrStoreFTHit::initialize()     | libPrAlgorithms.so

ApplicationMgr       INFO Application Manager Finalized successfully
ApplicationMgr       INFO Application Manager Terminated successfully
