# setting LC_ALL to "C"
# --> Including file '/project/bfys/graven/master/Brunel/Rec/Brunel/tests/options/brunel-lumiconddbchecker.py'
# <-- End of file '/project/bfys/graven/master/Brunel/Rec/Brunel/tests/options/brunel-lumiconddbchecker.py'
# applying configuration of LHCbApp
# /***** User LHCbApp/LHCbApp ************************************************************************
# |-Persistency    = None
# |-OutputLevel    = 3
# |-DataType       = '2012'
# |-TimeStamp      = False
# |-SkipEvents     = 0
# |-EvtMax         = -1
# |-CondDBtag      = 'head-20110131'  (default: '')
# |-DQFLAGStag     = ''
# |-IgnoreDQFlags  = True
# |-Monitors       = []  (default: [])
# |-Detectors      = []  (default: [])
# |-LocalDataTypes = []  (default: [])
# |-XMLSummary     = None
# |-Simulation     = False
# |-DDDBtag        = ''
# |-OnlineMode     = False
# \----- (End of User LHCbApp/LHCbApp) ---------------------------------------------------------------
# applying configuration of DDDBConf
# WARNING: Using default tag dddb-20170721-2 for partition DDDB
# WARNING: Using default tag <latest:2012> for partition DQFLAGS
# /***** User DDDBConf/DDDBConf **********************************************************************
# |-IgnoreHeartBeat     = False
# |-EnableRunStampCheck = True
# |-InitialTime         = 'Safe'
# |-Simulation          = False
# |-DataType            = '2012'
# |-AutoTags            = False
# |-DbRoot              = 'git:/lhcb.xml'
# |-OnlineMode          = False
# \----- (End of User DDDBConf/DDDBConf) -------------------------------------------------------------
# skipping configuration of XMLSummary
# applying configuration of CondDB
# /***** User CondDB/CondDB **************************************************************************
# |-Upgrade                    = False
# |-EnableRunStampCheck        = True
# |-DBSnapshotDirectory        = '/group/online/hlt/conditions'
# |-LatestLocalTagsByDataType  = []  (default: [])
# |-Online                     = False
# |-LogFile                    = ''
# |-SQLiteLocalCopiesDir       = ''
# |-EnableRunChangeHandler     = False
# |-RunChangeHandlerConditions = {'online_%d.xml': ['Conditions/Online/LHCb/Magnet/Set', 'Conditions/Online/Velo/MotionSystem', 'Conditions/Online/LHCb/Lumi/LumiSettings', 'Conditions/Online/LHCb/LHCFillingScheme', 'Conditions/Online/LHCb/RunParameters', 'Conditions/Online/Rich1/R1HltGasParameters', 'Conditions/Online/Rich2/R2HltGasParameters']}
# |                            (default: {'online_%d.xml': ['Conditions/Online/LHCb/Magnet/Set', 'Conditions/Online/Velo/MotionSystem', 'Conditions/Online/LHCb/Lumi/LumiSettings', 'Conditions/Online/LHCb/LHCFillingScheme', 'Conditions/Online/LHCb/RunParameters', 'Conditions/Online/Rich1/R1HltGasParameters', 'Conditions/Online/Rich2/R2HltGasParameters']})
# |-Tags                       = {'DDDB': 'dddb-20170721-2', 'DQFLAGS': 'dq-20140822', 'SIMCOND': 'head-20110131', 'LHCBCOND': 'head-20110131'}
# |                            (default: {})
# |-LoadCALIBDB                = 'OFFLINE'
# |-AllLocalTagsByDataType     = []  (default: [])
# |-UseOracle                  = False
# |-RunStampCondition          = ''
# |-PartitionConnectionString  = {}  (default: {})
# |-LocalTags                  = {}  (default: {})
# |-IgnoreHeartBeat            = False
# |-Overrides                  = []  (default: [])
# |-Simulation                 = False
# |-QueryGranularity           = 0
# |-LatestGlobalTagByDataType  = ''
# |-UseDBSnapshot              = False
# |-DisableLFC                 = False
# |-HeartBeatCondition         = '/Conditions/Online/LHCb/Tick'
# |-LatestGlobalTagByDataTypes = []  (default: [])
# |-UseLatestTags              = []  (default: [])
# |-OverwriteSQLiteLocalCopy   = False
# \----- (End of User CondDB/CondDB) -----------------------------------------------------------------
ApplicationMgr    SUCCESS
====================================================================================================================================
                                                   Welcome to Brunel version v52r3
                                          running on stbc-i4 on Sat Jul 29 11:38:10 2017
====================================================================================================================================
ApplicationMgr       INFO Application Manager Configured successfully
ToolSvc.GitDDDB      INFO opening Git repository '/cvmfs/lhcb.cern.ch/lib/lhcb/git-conddb/DDDB.git'
ToolSvc.GitDDDB      INFO using commit 'dddb-20170721-2' corresponding to 8b365e8c9724ee71b8b16d5e4e56787bf58fc44b
ToolSvc.GitLHCB...   INFO opening Git repository '/cvmfs/lhcb.cern.ch/lib/lhcb/git-conddb/LHCBCOND.git'
ToolSvc.GitLHCB...   INFO using commit 'head-20110131' corresponding to 8236829bb3da0f2c56fcf2547752857aab2d2b2b
ToolSvc.GitONLINE    INFO opening Git repository '/cvmfs/lhcb.cern.ch/lib/lhcb/git-conddb/ONLINE.git'
ToolSvc.GitONLINE    INFO using commit 'HEAD' corresponding to 89e314dd343084b39175bf1c7e6a3f8b90b541c2
ToolSvc.GitDQFLAGS   INFO opening Git repository '/cvmfs/lhcb.cern.ch/lib/lhcb/git-conddb/DQFLAGS.git'
ToolSvc.GitDQFLAGS   INFO using commit 'dq-20140822' corresponding to c8cd1b53fd9964a2f7f6de2c9a85c1982a286f94
DetectorPersist...   INFO Added successfully Conversion service:XmlCnvSvc
DetectorDataSvc   SUCCESS Detector description database: git:/lhcb.xml
CheckDB              INFO Member list: LumiCheckCondDB/CheckCondDB
RndmGenSvc.Engine    INFO Generator engine type:CLHEP::RanluxEngine
RndmGenSvc.Engine    INFO Current Seed:1234567 Luxury:3
RndmGenSvc           INFO Using Random engine:HepRndm::Engine<CLHEP::RanluxEngine>
ToolSvc.Sequenc...   INFO This machine has a speed about   1.54 times the speed of a 2.8 GHz Xeon.
HistogramPersis...WARNING Histograms saving not required.
ApplicationMgr       INFO Application Manager Initialized successfully
ApplicationMgr       INFO Application Manager Started successfully
EventSelector        INFO End of event input reached.
EventLoopMgr         INFO No more events in event selection
CheckCondDB          INFO ========== Probe DB: START ========== stop
CheckCondDB          INFO Generate event at unix time: 1269817249
ConfigCDBAccessSvc   INFO  opening /cvmfs/lhcb.cern.ch/lib/lhcb/DBASE/TCK/HltTCK/v3r18p11/config.cdb in mode ReadOnly
PropertyConfigSvc    INFO  resolved TCK/0x00021810 to bcfe26c8d3c0d51154e37b179032d735
CheckCondDB          INFO Event time (UTC) : 2010-03-28 23:00
CheckCondDB          INFO  TCK:           137232 OdinFraction:  0.7 Randomrate:    1000 LHCfrequency:  11245 BB RandomRate: 700 bunches:       1 absolutescale: 1.634e-11
CheckCondDB          INFO Generate event at unix time: 1270076449
PropertyConfigSvc    INFO  resolved TCK/0x00021310 to dd8c0d97e5d96f783dab121bd6be4586
CheckCondDB          INFO Event time (UTC) : 2010-03-31 23:00
CheckCondDB          INFO  TCK:           135952 OdinFraction:  0.7 Randomrate:    1000 LHCfrequency:  11245 BB RandomRate: 562.274 bunches:       1 absolutescale: 1.634e-11
CheckCondDB          INFO Generate event at unix time: 1270335649
PropertyConfigSvc    INFO  resolved TCK/0x00021210 to 5f7e62274021536c77f4bf5c19ad53cb
CheckCondDB          INFO Event time (UTC) : 2010-04-03 23:00
CheckCondDB          INFO  TCK:           135696 OdinFraction:  0.933333 Randomrate:    1000 LHCfrequency:  11245 BB RandomRate: 562.274 bunches:       1 absolutescale: 1.634e-11
CheckCondDB          INFO Generate event at unix time: 1270594849
CheckCondDB          INFO Event time (UTC) : 2010-04-06 23:00
CheckCondDB          INFO  TCK:           137232 OdinFraction:  0.7 Randomrate:    1000 LHCfrequency:  11245 BB RandomRate: 100 bunches:       1 absolutescale: 1.634e-11
CheckCondDB          INFO Generate event at unix time: 1270854049
PropertyConfigSvc    INFO  resolved TCK/0x00021610 to 679abc00f7aafb4b6bf39a7611fbf798
CheckCondDB          INFO Event time (UTC) : 2010-04-09 23:00
CheckCondDB          INFO  TCK:           136720 OdinFraction:  0.7 Randomrate:    1000 LHCfrequency:  11245 BB RandomRate: 700 bunches:       1 absolutescale: 1.634e-11
CheckCondDB          INFO Generate event at unix time: 1271113249
PropertyConfigSvc    INFO  resolved TCK/0x10041210 to 72a2953b9ad434d9bac69029002c2fee
CheckCondDB          INFO Event time (UTC) : 2010-04-12 23:00
CheckCondDB          INFO  TCK:           268702224 OdinFraction:  0.7 Randomrate:    997 LHCfrequency:  11245 BB RandomRate: 697.9 bunches:       1 absolutescale: 1.634e-11
CheckCondDB          INFO Generate event at unix time: 1271372449
PropertyConfigSvc    INFO  resolved TCK/0x00041210 to 406f3d7ebee214cb4eddb32f8f459f0b
CheckCondDB          INFO Event time (UTC) : 2010-04-15 23:00
CheckCondDB          INFO  TCK:           266768 OdinFraction:  0 Randomrate:    997 LHCfrequency:  11245 BB RandomRate: 697.9 bunches:       1 absolutescale: 1.634e-11
CheckCondDB          INFO Generate event at unix time: 1271631649
CheckCondDB          INFO Event time (UTC) : 2010-04-18 23:00
CheckCondDB          INFO  TCK:           266768 OdinFraction:  0.7 Randomrate:    997 LHCfrequency:  11245 BB RandomRate: 697.9 bunches:       1 absolutescale: 1.634e-11
CheckCondDB          INFO Generate event at unix time: 1271890849
CheckCondDB          INFO Event time (UTC) : 2010-04-21 23:00
CheckCondDB          INFO  TCK:           266768 OdinFraction:  0.7 Randomrate:    997 LHCfrequency:  11245 BB RandomRate: 562.274 bunches:       1 absolutescale: 1.634e-11
CheckCondDB          INFO Generate event at unix time: 1272150049
PropertyConfigSvc    INFO  resolved TCK/0x00041710 to d31a68913daf330bfcbad03166d1f4c1
CheckCondDB          INFO Event time (UTC) : 2010-04-24 23:00
CheckCondDB          INFO  TCK:           268048 OdinFraction:  0.7 Randomrate:    997 LHCfrequency:  11245 BB RandomRate: 697.9 bunches:       2 absolutescale: 1.634e-11
CheckCondDB          INFO Generate event at unix time: 1272409249
PropertyConfigSvc    INFO  resolved TCK/0x80810000 to a347fdb301f42014926726c25297c112
ToolSvc.lumiDat...WARNING could not find configuration for Hlt1LumiODINFilter
CheckCondDB          INFO Event time (UTC) : 2010-04-27 23:00
CheckCondDB          INFO  TCK:           2155937793 OdinFraction:  0.7 Randomrate:    0 LHCfrequency:  11245 BB RandomRate: 697.9 bunches:       1 absolutescale: 1.634e-11
CheckCondDB          INFO Generate event at unix time: 1272668449
PropertyConfigSvc    INFO  resolved TCK/0x80840000 to 8d105fa9447104c2ca832d6ea13f0f3e
ToolSvc.lumiDat...WARNING could not find configuration for Hlt1LumiODINFilter
CheckCondDB          INFO Event time (UTC) : 2010-04-30 23:00
CheckCondDB          INFO  TCK:           2156139024 OdinFraction:  0.7 Randomrate:    0 LHCfrequency:  11245 BB RandomRate: 697.9 bunches:       1 absolutescale: 1.634e-11
CheckCondDB          INFO Generate event at unix time: 1272927649
PropertyConfigSvc    INFO  resolved TCK/0x00051210 to 39044f6c6a79df8877b8661696708eb5
CheckCondDB          INFO Event time (UTC) : 2010-05-03 23:00
CheckCondDB          INFO  TCK:           332304 OdinFraction:  0.7 Randomrate:    997 LHCfrequency:  11245 BB RandomRate: 697.9 bunches:       1 absolutescale: 1.634e-11
CheckCondDB          INFO Generate event at unix time: 1273186849
CheckCondDB          INFO Event time (UTC) : 2010-05-06 23:00
CheckCondDB          INFO  TCK:           332304 OdinFraction:  0.7 Randomrate:    997 LHCfrequency:  11245 BB RandomRate: 697.9 bunches:       1 absolutescale: 1.634e-11
CheckCondDB          INFO Generate event at unix time: 1273446049
CheckCondDB          INFO Event time (UTC) : 2010-05-09 23:00
CheckCondDB          INFO  TCK:           332304 OdinFraction:  0.7 Randomrate:    997 LHCfrequency:  11245 BB RandomRate: 697.9 bunches:       1 absolutescale: 1.634e-11
CheckCondDB          INFO Generate event at unix time: 1273705249
PropertyConfigSvc    INFO  resolved TCK/0x00081210 to e7c9d35ece5cd4ce97a18d7ca82e6fe9
CheckCondDB          INFO Event time (UTC) : 2010-05-12 23:00
CheckCondDB          INFO  TCK:           528912 OdinFraction:  0.7 Randomrate:    997 LHCfrequency:  11245 BB RandomRate: 697.9 bunches:       1 absolutescale: 1.634e-11
CheckCondDB          INFO Generate event at unix time: 1273964449
PropertyConfigSvc    INFO  resolved TCK/0x00081710 to fd6c812e5294c47a5859e7db2c7fb976
CheckCondDB          INFO Event time (UTC) : 2010-05-15 23:00
CheckCondDB          INFO  TCK:           530192 OdinFraction:  0.7 Randomrate:    997 LHCfrequency:  11245 BB RandomRate: 697.9 bunches:       3 absolutescale: 1.634e-11
CheckCondDB          INFO Generate event at unix time: 1274223649
CheckCondDB          INFO Event time (UTC) : 2010-05-18 23:00
CheckCondDB          INFO  TCK:           528912 OdinFraction:  0.7 Randomrate:    997 LHCfrequency:  11245 BB RandomRate: 697.9 bunches:       3 absolutescale: 1.634e-11
CheckCondDB          INFO Generate event at unix time: 1274482849
CheckCondDB          INFO Event time (UTC) : 2010-05-21 23:00
CheckCondDB          INFO  TCK:           528912 OdinFraction:  0.7 Randomrate:    997 LHCfrequency:  11245 BB RandomRate: 697.9 bunches:       3 absolutescale: 1.634e-11
CheckCondDB          INFO Generate event at unix time: 1274742049
CheckCondDB          INFO Event time (UTC) : 2010-05-24 23:00
CheckCondDB          INFO  TCK:           528912 OdinFraction:  0.7 Randomrate:    997 LHCfrequency:  11245 BB RandomRate: 697.9 bunches:       8 absolutescale: 1.634e-11
CheckCondDB          INFO Generate event at unix time: 1275001249
PropertyConfigSvc    INFO  resolved TCK/0x00091210 to 902d27aae89b1ee8ad9b58b353955932
CheckCondDB          INFO Event time (UTC) : 2010-05-27 23:00
CheckCondDB          INFO  TCK:           594448 OdinFraction:  0.7 Randomrate:    997 LHCfrequency:  11245 BB RandomRate: 100 bunches:       8 absolutescale: 1.634e-11
CheckCondDB          INFO Generate event at unix time: 1275260449
CheckCondDB          INFO Event time (UTC) : 2010-05-30 23:00
CheckCondDB          INFO  TCK:           594448 OdinFraction:  0.7 Randomrate:    997 LHCfrequency:  11245 BB RandomRate: 697.9 bunches:       8 absolutescale: 1.634e-11
CheckCondDB          INFO Generate event at unix time: 1275519649
CheckCondDB          INFO Event time (UTC) : 2010-06-02 23:00
CheckCondDB          INFO  TCK:           594448 OdinFraction:  1 Randomrate:    997 LHCfrequency:  11245 BB RandomRate: 100 bunches:       8 absolutescale: 1.634e-11
CheckCondDB          INFO Generate event at unix time: 1275778849
CheckCondDB          INFO Event time (UTC) : 2010-06-05 23:00
CheckCondDB          INFO  TCK:           594448 OdinFraction:  0.7 Randomrate:    997 LHCfrequency:  11245 BB RandomRate: 697.9 bunches:       8 absolutescale: 1.634e-11
CheckCondDB          INFO Generate event at unix time: 1276038049
CheckCondDB          INFO Event time (UTC) : 2010-06-08 23:00
CheckCondDB          INFO  TCK:           594448 OdinFraction:  0.7 Randomrate:    997 LHCfrequency:  11245 BB RandomRate: 100 bunches:       8 absolutescale: 1.634e-11
CheckCondDB          INFO Generate event at unix time: 1276297249
PropertyConfigSvc    INFO  resolved TCK/0x000f2210 to ff2b7781394a9f5dcf78beed8f345cfd
CheckCondDB          INFO Event time (UTC) : 2010-06-11 23:00
CheckCondDB          INFO  TCK:           991760 OdinFraction:  0.7 Randomrate:    997 LHCfrequency:  11245 BB RandomRate: 697.9 bunches:       8 absolutescale: 1.634e-11
CheckCondDB          INFO Generate event at unix time: 1276556449
CheckCondDB          INFO Event time (UTC) : 2010-06-14 23:00
CheckCondDB          INFO  TCK:           991760 OdinFraction:  0.7 Randomrate:    997 LHCfrequency:  11245 BB RandomRate: 697.9 bunches:       8 absolutescale: 1.634e-11
CheckCondDB          INFO Generate event at unix time: 1276815649
CheckCondDB          INFO Event time (UTC) : 2010-06-17 23:00
CheckCondDB          INFO  TCK:           991760 OdinFraction:  0.7 Randomrate:    997 LHCfrequency:  11245 BB RandomRate: 697.9 bunches:       8 absolutescale: 1.634e-11
CheckCondDB          INFO Generate event at unix time: 1277074849
CheckCondDB          INFO Event time (UTC) : 2010-06-20 23:00
CheckCondDB          INFO  TCK:           991760 OdinFraction:  0.7 Randomrate:    997 LHCfrequency:  11245 BB RandomRate: 697.9 bunches:       8 absolutescale: 1.634e-11
CheckCondDB          INFO Generate event at unix time: 1277334049
CheckCondDB          INFO Event time (UTC) : 2010-06-23 23:00
CheckCondDB          INFO  TCK:           528912 OdinFraction:  0.7 Randomrate:    997 LHCfrequency:  11245 BB RandomRate: 697.9 bunches:       8 absolutescale: 1.634e-11
CheckCondDB          INFO Generate event at unix time: 1277593249
PropertyConfigSvc    INFO  resolved TCK/0x000e001f to 85fc94cd5950ecec83349ad979d6952c
CheckCondDB          INFO Event time (UTC) : 2010-06-26 23:00
CheckCondDB          INFO  TCK:           917535 OdinFraction:  0.7 Randomrate:    997 LHCfrequency:  11245 BB RandomRate: 697.9 bunches:       2 absolutescale: 1.634e-11
CheckCondDB          INFO Generate event at unix time: 1277852449
PropertyConfigSvc    INFO  resolved TCK/0x000e001e to 92dd07abfe253337e69e3ba4ff01605b
CheckCondDB          INFO Event time (UTC) : 2010-06-29 23:00
CheckCondDB          INFO  TCK:           917534 OdinFraction:  0.7 Randomrate:    997 LHCfrequency:  11245 BB RandomRate: 697.9 bunches:       2 absolutescale: 1.634e-11
CheckCondDB          INFO Generate event at unix time: 1278111649
PropertyConfigSvc    INFO  resolved TCK/0x0012001e to 5f62ada7ce1db2d172ad10c34b7d81dc
CheckCondDB          INFO Event time (UTC) : 2010-07-02 23:00
CheckCondDB          INFO  TCK:           1179678 OdinFraction:  0.7 Randomrate:    997 LHCfrequency:  11245 BB RandomRate: 697.9 bunches:       4 absolutescale: 1.634e-11
CheckCondDB          INFO Generate event at unix time: 1278370849
PropertyConfigSvc    INFO  resolved TCK/0x0012001f to 658cf52a860e4b540ac1decddab6254c
CheckCondDB          INFO Event time (UTC) : 2010-07-05 23:00
CheckCondDB          INFO  TCK:           1179679 OdinFraction:  0.7 Randomrate:    997 LHCfrequency:  11245 BB RandomRate: 697.9 bunches:       4 absolutescale: 1.634e-11
CheckCondDB          INFO Generate event at unix time: 1278630049
CheckCondDB          INFO Event time (UTC) : 2010-07-08 23:00
CheckCondDB          INFO  TCK:           1179678 OdinFraction:  0.933333 Randomrate:    997 LHCfrequency:  11245 BB RandomRate: 100 bunches:       4 absolutescale: 1.634e-11
CheckCondDB          INFO Generate event at unix time: 1278889249
PropertyConfigSvc    INFO  resolved TCK/0x0014001e to bd64ca2064731578249c5a178cb49041
CheckCondDB          INFO Event time (UTC) : 2010-07-11 23:00
CheckCondDB          INFO  TCK:           1310750 OdinFraction:  0.7 Randomrate:    997 LHCfrequency:  11245 BB RandomRate: 697.9 bunches:       4 absolutescale: 1.634e-11
CheckCondDB          INFO Generate event at unix time: 1279148449
CheckCondDB          INFO Event time (UTC) : 2010-07-14 23:00
CheckCondDB          INFO  TCK:           1310750 OdinFraction:  0.7 Randomrate:    997 LHCfrequency:  11245 BB RandomRate: 697.9 bunches:       8 absolutescale: 1.634e-11
CheckCondDB          INFO Generate event at unix time: 1279407649
PropertyConfigSvc    INFO  resolved TCK/0x0013001f to cd297e8ef06dd2f6c0571e3cd465f84c
CheckCondDB          INFO Event time (UTC) : 2010-07-17 23:00
CheckCondDB          INFO  TCK:           1245215 OdinFraction:  0.7 Randomrate:    997 LHCfrequency:  11245 BB RandomRate: 697.9 bunches:       8 absolutescale: 1.634e-11
CheckCondDB          INFO Generate event at unix time: 1279666849
CheckCondDB          INFO Event time (UTC) : 2010-07-20 23:00
CheckCondDB          INFO  TCK:           1310750 OdinFraction:  0.7 Randomrate:    997 LHCfrequency:  11245 BB RandomRate: 697.9 bunches:       8 absolutescale: 1.634e-11
CheckCondDB          INFO Generate event at unix time: 1279926049
PropertyConfigSvc    INFO  resolved TCK/0x0017001e to 93271556dcec15fddd2271fc75a4d76a
CheckCondDB          INFO Event time (UTC) : 2010-07-23 23:00
CheckCondDB          INFO  TCK:           1507358 OdinFraction:  0.7 Randomrate:    997 LHCfrequency:  11245 BB RandomRate: 697.9 bunches:       8 absolutescale: 1.634e-11
CheckCondDB          INFO Generate event at unix time: 1280185249
CheckCondDB          INFO Event time (UTC) : 2010-07-26 23:00
CheckCondDB          INFO  TCK:           1507358 OdinFraction:  0.7 Randomrate:    997 LHCfrequency:  11245 BB RandomRate: 697.9 bunches:       8 absolutescale: 1.634e-11
CheckCondDB          INFO Generate event at unix time: 1280444449
PropertyConfigSvc    INFO  resolved TCK/0x0017001f to 407180c5dd757f15f100a98e1f01f0dc
CheckCondDB          INFO Event time (UTC) : 2010-07-29 23:00
CheckCondDB          INFO  TCK:           1507359 OdinFraction:  0.7 Randomrate:    997 LHCfrequency:  11245 BB RandomRate: 697.9 bunches:       16 absolutescale: 1.634e-11
CheckCondDB          INFO Generate event at unix time: 1280703649
CheckCondDB          INFO Event time (UTC) : 2010-08-01 23:00
CheckCondDB          INFO  TCK:           1507359 OdinFraction:  0.7 Randomrate:    997 LHCfrequency:  11245 BB RandomRate: 697.9 bunches:       16 absolutescale: 1.634e-11
CheckCondDB          INFO Generate event at unix time: 1280962849
CheckCondDB          INFO Event time (UTC) : 2010-08-04 23:00
CheckCondDB          INFO  TCK:           1507359 OdinFraction:  0.7 Randomrate:    997 LHCfrequency:  11245 BB RandomRate: 697.9 bunches:       16 absolutescale: 1.634e-11
CheckCondDB          INFO Generate event at unix time: 1281222049
PropertyConfigSvc    INFO  resolved TCK/0x0019001f to 8d1a00ec22af25933e68cd71e901c483
CheckCondDB          INFO Event time (UTC) : 2010-08-07 23:00
CheckCondDB          INFO  TCK:           1638431 OdinFraction:  0.7 Randomrate:    997 LHCfrequency:  11245 BB RandomRate: 697.9 bunches:       16 absolutescale: 1.634e-11
CheckCondDB          INFO Generate event at unix time: 1281481249
CheckCondDB          INFO Event time (UTC) : 2010-08-10 23:00
CheckCondDB          INFO  TCK:           1638431 OdinFraction:  0.7 Randomrate:    997 LHCfrequency:  11245 BB RandomRate: 697.9 bunches:       16 absolutescale: 1.634e-11
CheckCondDB          INFO Generate event at unix time: 1281740449
CheckCondDB          INFO Event time (UTC) : 2010-08-13 23:00
CheckCondDB          INFO  TCK:           1638431 OdinFraction:  0.7 Randomrate:    997 LHCfrequency:  11245 BB RandomRate: 697.9 bunches:       16 absolutescale: 1.634e-11
CheckCondDB          INFO Generate event at unix time: 1281999649
CheckCondDB          INFO Event time (UTC) : 2010-08-16 23:00
CheckCondDB          INFO  TCK:           1638431 OdinFraction:  0.7 Randomrate:    997 LHCfrequency:  11245 BB RandomRate: 697.9 bunches:       16 absolutescale: 1.634e-11
CheckCondDB          INFO Generate event at unix time: 1282258849
CheckCondDB          INFO Event time (UTC) : 2010-08-19 23:00
CheckCondDB          INFO  TCK:           1638431 OdinFraction:  0.7 Randomrate:    997 LHCfrequency:  11245 BB RandomRate: 697.9 bunches:       36 absolutescale: 1.634e-11
CheckCondDB          INFO Generate event at unix time: 1282518049
CheckCondDB          INFO Event time (UTC) : 2010-08-22 23:00
CheckCondDB          INFO  TCK:           1638431 OdinFraction:  0.7 Randomrate:    997 LHCfrequency:  11245 BB RandomRate: 697.9 bunches:       36 absolutescale: 1.634e-11
CheckCondDB          INFO Generate event at unix time: 1282777249
PropertyConfigSvc    INFO  resolved TCK/0x00190023 to 5e1fa6fd134f8c3cf7e761bd3488ff77
CheckCondDB          INFO Event time (UTC) : 2010-08-25 23:00
CheckCondDB          INFO  TCK:           1638435 OdinFraction:  0.933333 Randomrate:    997 LHCfrequency:  11245 BB RandomRate: 100 bunches:       35 absolutescale: 1.634e-11
CheckCondDB          INFO Generate event at unix time: 1283036449
PropertyConfigSvc    INFO  resolved TCK/0x00190024 to 1d5a8b257be98461969cd786059aaea4
CheckCondDB          INFO Event time (UTC) : 2010-08-28 23:00
CheckCondDB          INFO  TCK:           1638436 OdinFraction:  0.7 Randomrate:    997 LHCfrequency:  11245 BB RandomRate: 697.9 bunches:       35 absolutescale: 1.634e-11
CheckCondDB          INFO Generate event at unix time: 1283295649
CheckCondDB          INFO Event time (UTC) : 2010-08-31 23:00
CheckCondDB          INFO  TCK:           1638436 OdinFraction:  0.7 Randomrate:    997 LHCfrequency:  11245 BB RandomRate: 697.9 bunches:       35 absolutescale: 1.634e-11
CheckCondDB          INFO Generate event at unix time: 1283554849
CheckCondDB          INFO Event time (UTC) : 2010-09-03 23:00
CheckCondDB          INFO  TCK:           1638436 OdinFraction:  0.7 Randomrate:    997 LHCfrequency:  11245 BB RandomRate: 697.9 bunches:       35 absolutescale: 1.634e-11
CheckCondDB          INFO Generate event at unix time: 1283814049
CheckCondDB          INFO Event time (UTC) : 2010-09-06 23:00
CheckCondDB          INFO  TCK:           1638436 OdinFraction:  0.7 Randomrate:    997 LHCfrequency:  11245 BB RandomRate: 697.9 bunches:       35 absolutescale: 1.634e-11
CheckCondDB          INFO Generate event at unix time: 1284073249
CheckCondDB          INFO Event time (UTC) : 2010-09-09 23:00
CheckCondDB          INFO  TCK:           1638436 OdinFraction:  0.7 Randomrate:    997 LHCfrequency:  11245 BB RandomRate: 697.9 bunches:       35 absolutescale: 1.634e-11
CheckCondDB          INFO Generate event at unix time: 1284332449
CheckCondDB          INFO Event time (UTC) : 2010-09-12 23:00
CheckCondDB          INFO  TCK:           1638436 OdinFraction:  0.7 Randomrate:    997 LHCfrequency:  11245 BB RandomRate: 697.9 bunches:       35 absolutescale: 1.634e-11
CheckCondDB          INFO Generate event at unix time: 1284591649
PropertyConfigSvc    INFO  resolved TCK/0x001b0028 to ff2aa536ff79d5b8c61f29702e28e1f5
CheckCondDB          INFO Event time (UTC) : 2010-09-15 23:00
CheckCondDB          INFO  TCK:           1769512 OdinFraction:  0.7 Randomrate:    997 LHCfrequency:  11245 BB RandomRate: 697.9 bunches:       35 absolutescale: 1.634e-11
CheckCondDB          INFO Generate event at unix time: 1284850849
PropertyConfigSvc    INFO  resolved TCK/0x001d0030 to 5713a1c6b1e7b046cda9afa65492a4c1
CheckCondDB          INFO Event time (UTC) : 2010-09-18 23:00
CheckCondDB          INFO  TCK:           1900592 OdinFraction:  0.7 Randomrate:    997 LHCfrequency:  11245 BB RandomRate: 697.9 bunches:       35 absolutescale: 1.634e-11
CheckCondDB          INFO Generate event at unix time: 1285110049
PropertyConfigSvc    INFO  resolved TCK/0x001f0029 to 783bb49d2f0ac24d06e17ffa6666f4c1
CheckCondDB          INFO Event time (UTC) : 2010-09-21 23:00
CheckCondDB          INFO  TCK:           2031657 OdinFraction:  0.7 Randomrate:    997 LHCfrequency:  11245 BB RandomRate: 697.9 bunches:       35 absolutescale: 1.634e-11
CheckCondDB          INFO Generate event at unix time: 1285369249
PropertyConfigSvc    INFO  resolved TCK/0x001f0031 to d23d03d9f6b36eb61d2a867b95d42f14
CheckCondDB          INFO Event time (UTC) : 2010-09-24 23:00
CheckCondDB          INFO  TCK:           2031665 OdinFraction:  0.7 Randomrate:    997 LHCfrequency:  11245 BB RandomRate: 697.9 bunches:       47 absolutescale: 1.634e-11
CheckCondDB          INFO Generate event at unix time: 1285628449
PropertyConfigSvc    INFO  resolved TCK/0x001e0030 to 70cef4a082660b1a69967f82ce236e7c
CheckCondDB          INFO Event time (UTC) : 2010-09-27 23:00
CheckCondDB          INFO  TCK:           1966128 OdinFraction:  0.933333 Randomrate:    997 LHCfrequency:  11245 BB RandomRate: 100 bunches:       93 absolutescale: 1.634e-11
CheckCondDB          INFO Generate event at unix time: 1285887649
CheckCondDB          INFO Event time (UTC) : 2010-09-30 23:00
CheckCondDB          INFO  TCK:           2031657 OdinFraction:  0.7 Randomrate:    997 LHCfrequency:  11245 BB RandomRate: 100 bunches:       12 absolutescale: 1.634e-11
CheckCondDB          INFO Generate event at unix time: 1286146849
CheckCondDB          INFO Event time (UTC) : 2010-10-03 23:00
CheckCondDB          INFO  TCK:           2031657 OdinFraction:  0.7 Randomrate:    997 LHCfrequency:  11245 BB RandomRate: 697.9 bunches:       140 absolutescale: 1.634e-11
CheckCondDB          INFO Generate event at unix time: 1286406049
PropertyConfigSvc    INFO  resolved TCK/0x0024002c to 270f35d82eb2a274a86005e7e97b3051
CheckCondDB          INFO Event time (UTC) : 2010-10-06 23:00
CheckCondDB          INFO  TCK:           2359340 OdinFraction:  0.933333 Randomrate:    997 LHCfrequency:  11245 BB RandomRate: 100 bunches:       186 absolutescale: 1.634e-11
CheckCondDB          INFO Generate event at unix time: 1286665249
PropertyConfigSvc    INFO  resolved TCK/0x0027002c to 9e8d961d43eb52e95edcf423a8f5a8df
CheckCondDB          INFO Event time (UTC) : 2010-10-09 23:00
CheckCondDB          INFO  TCK:           2555948 OdinFraction:  0.7 Randomrate:    997 LHCfrequency:  11245 BB RandomRate: 697.9 bunches:       233 absolutescale: 1.634e-11
CheckCondDB          INFO Generate event at unix time: 1286924449
PropertyConfigSvc    INFO  resolved TCK/0x002b002a to 6f499cf6d61c741fb97507b232903327
CheckCondDB          INFO Event time (UTC) : 2010-10-12 23:00
CheckCondDB          INFO  TCK:           2818090 OdinFraction:  0.7 Randomrate:    997 LHCfrequency:  11245 BB RandomRate: 697.9 bunches:       233 absolutescale: 1.634e-11
CheckCondDB          INFO Generate event at unix time: 1287183649
PropertyConfigSvc    INFO  resolved TCK/0x002a002a to 5d3c2464069d73ee33e1507232ecd634
CheckCondDB          INFO Event time (UTC) : 2010-10-15 23:00
CheckCondDB          INFO  TCK:           2752554 OdinFraction:  0.7 Randomrate:    997 LHCfrequency:  11245 BB RandomRate: 697.9 bunches:       12 absolutescale: 1.634e-11
CheckCondDB          INFO Generate event at unix time: 1287442849
CheckCondDB          INFO Event time (UTC) : 2010-10-18 23:00
CheckCondDB          INFO  TCK:           2752554 OdinFraction:  0.777778 Randomrate:    997 LHCfrequency:  11245 BB RandomRate: 100 bunches:       295 absolutescale: 1.634e-11
CheckCondDB          INFO Generate event at unix time: 1287702049
CheckCondDB          INFO Event time (UTC) : 2010-10-21 23:00
CheckCondDB          INFO  TCK:           1769512 OdinFraction:  0.7 Randomrate:    997 LHCfrequency:  11245 BB RandomRate: 100 bunches:       295 absolutescale: 1.634e-11
CheckCondDB          INFO Generate event at unix time: 1287961249
PropertyConfigSvc    INFO  resolved TCK/0x002e002a to 4ba57b5c9c269dffb74ccfa86ca39f94
CheckCondDB          INFO Event time (UTC) : 2010-10-24 23:00
CheckCondDB          INFO  TCK:           3014698 OdinFraction:  0.7 Randomrate:    997 LHCfrequency:  11245 BB RandomRate: 697.9 bunches:       295 absolutescale: 1.634e-11
CheckCondDB          INFO Generate event at unix time: 1288220449
PropertyConfigSvc    INFO  resolved TCK/0x002e002c to 4ed1d289c04ba3cf52f088358919cef2
CheckCondDB          INFO Event time (UTC) : 2010-10-27 23:00
CheckCondDB          INFO  TCK:           3014700 OdinFraction:  0.7 Randomrate:    997 LHCfrequency:  11245 BB RandomRate: 697.9 bunches:       344 absolutescale: 1.634e-11
CheckCondDB          INFO Generate event at unix time: 1288479649
CheckCondDB          INFO Event time (UTC) : 2010-10-30 23:00
CheckCondDB          INFO  TCK:           3014698 OdinFraction:  0.7 Randomrate:    997 LHCfrequency:  11245 BB RandomRate: 697.9 bunches:       -99999 absolutescale: 1.634e-11
CheckCondDB          INFO Generate event at unix time: 1288738849
CheckCondDB          INFO Event time (UTC) : 2010-11-02 23:00
CheckCondDB          INFO  TCK:           3014698 OdinFraction:  0.7 Randomrate:    997 LHCfrequency:  11245 BB RandomRate: 100 bunches:       -99999 absolutescale: 1.634e-11
CheckCondDB          INFO Generate event at unix time: 1288998049
CheckCondDB          INFO Event time (UTC) : 2010-11-05 23:00
CheckCondDB          INFO  TCK:           3014698 OdinFraction:  0.7 Randomrate:    997 LHCfrequency:  11245 BB RandomRate: 697.9 bunches:       -99999 absolutescale: 1.634e-11
CheckCondDB          INFO Generate event at unix time: 1289257249
CheckCondDB          INFO Event time (UTC) : 2010-11-08 23:00
CheckCondDB          INFO  TCK:           3014698 OdinFraction:  0.7 Randomrate:    997 LHCfrequency:  11245 BB RandomRate: 697.9 bunches:       -99999 absolutescale: 1.634e-11
CheckCondDB          INFO Generate event at unix time: 1289516449
CheckCondDB          INFO Event time (UTC) : 2010-11-11 23:00
CheckCondDB          INFO  TCK:           3014698 OdinFraction:  0.7 Randomrate:    997 LHCfrequency:  11245 BB RandomRate: 697.9 bunches:       -99999 absolutescale: 1.634e-11
CheckCondDB          INFO Generate event at unix time: 1289775649
CheckCondDB          INFO Event time (UTC) : 2010-11-14 23:00
CheckCondDB          INFO  TCK:           3014698 OdinFraction:  0.7 Randomrate:    997 LHCfrequency:  11245 BB RandomRate: 697.9 bunches:       -99999 absolutescale: 1.634e-11
CheckCondDB          INFO Generate event at unix time: 1290034849
CheckCondDB          INFO Event time (UTC) : 2010-11-17 23:00
CheckCondDB          INFO  TCK:           3014698 OdinFraction:  0.7 Randomrate:    997 LHCfrequency:  11245 BB RandomRate: 697.9 bunches:       -99999 absolutescale: 1.634e-11
CheckCondDB          INFO Generate event at unix time: 1290294049
CheckCondDB          INFO Event time (UTC) : 2010-11-20 23:00
CheckCondDB          INFO  TCK:           3014698 OdinFraction:  0.7 Randomrate:    997 LHCfrequency:  11245 BB RandomRate: 697.9 bunches:       -99999 absolutescale: 1.634e-11
CheckCondDB          INFO ========== Probe DB: END   ==========
ApplicationMgr       INFO Application Manager Stopped successfully
EventLoopMgr         INFO Histograms converted successfully according to request.
ToolSvc              INFO Removing all tools created by ToolSvc
ToolSvc.Sequenc...   INFO --------------------------------------------------------------------------------------------------
ToolSvc.Sequenc...   INFO This machine has a speed about   1.54 times the speed of a 2.8 GHz Xeon.
ToolSvc.Sequenc...   INFO Algorithm          (millisec) |    <user> |   <clock> |      min       max    sigma | entries | total (s) |
ToolSvc.Sequenc...   INFO --------------------------------------------------------------------------------------------------
ToolSvc.Sequenc...   INFO CheckDB                       |     0.000 |     0.000 |    0.000       0.0     0.00 |       0 |     0.000 |
ToolSvc.Sequenc...   INFO   CheckCondDB                 |     0.000 |     0.000 |    0.000       0.0     0.00 |       0 |     0.000 |
ToolSvc.Sequenc...   INFO --------------------------------------------------------------------------------------------------
ApplicationMgr       INFO Application Manager Finalized successfully
ApplicationMgr       INFO Application Manager Terminated successfully
